date,value,realtime_start,realtime_end,predicted
1948-01-01,4.0,2018-12-12,2018-12-12,4.074558487019619
1948-02-01,4.7,2018-12-12,2018-12-12,3.9606559565821997
1948-03-01,4.5,2018-12-12,2018-12-12,4.626701825935393
1948-04-01,4.0,2018-12-12,2018-12-12,4.711124148073128
1948-05-01,3.4,2018-12-12,2018-12-12,3.942421025606507
1948-06-01,3.9,2018-12-12,2018-12-12,3.4444708740543963
1948-07-01,3.9,2018-12-12,2018-12-12,3.926855717049507
1948-08-01,3.6,2018-12-12,2018-12-12,3.758160678599491
1948-09-01,3.4,2018-12-12,2018-12-12,3.6377020672864075
1948-10-01,2.9,2018-12-12,2018-12-12,3.4747755917178824
1948-11-01,3.3,2018-12-12,2018-12-12,3.101266204937723
1948-12-01,3.6,2018-12-12,2018-12-12,3.1949225535058705
1949-01-01,5.0,2018-12-12,2018-12-12,3.426152925232299
1949-02-01,5.8,2018-12-12,2018-12-12,4.5382300058956275
1949-03-01,5.6,2018-12-12,2018-12-12,5.720696678949083
1949-04-01,5.4,2018-12-12,2018-12-12,5.680393080862825
1949-05-01,5.7,2018-12-12,2018-12-12,5.58805605599299
1949-06-01,6.4,2018-12-12,2018-12-12,5.566247870088699
1949-07-01,7.0,2018-12-12,2018-12-12,6.286128560817124
1949-08-01,6.3,2018-12-12,2018-12-12,6.616744673713785
1949-09-01,5.9,2018-12-12,2018-12-12,6.554456888806054
1949-10-01,6.1,2018-12-12,2018-12-12,6.061281463401504
1949-11-01,5.7,2018-12-12,2018-12-12,5.8720376424598415
1949-12-01,6.0,2018-12-12,2018-12-12,5.719577649996125
1950-01-01,7.6,2018-12-12,2018-12-12,5.873504767535899
1950-02-01,7.9,2018-12-12,2018-12-12,7.598155491654339
1950-03-01,7.1,2018-12-12,2018-12-12,7.802321682190705
1950-04-01,6.0,2018-12-12,2018-12-12,7.433091375123475
1950-05-01,5.3,2018-12-12,2018-12-12,6.054255070903255
1950-06-01,5.6,2018-12-12,2018-12-12,5.3529840562213895
1950-07-01,5.3,2018-12-12,2018-12-12,5.568208059438661
1950-08-01,4.1,2018-12-12,2018-12-12,5.566586984200551
1950-09-01,4.0,2018-12-12,2018-12-12,4.422553100201728
1950-10-01,3.3,2018-12-12,2018-12-12,4.113745839258098
1950-11-01,3.8,2018-12-12,2018-12-12,3.149249694686788
1950-12-01,3.9,2018-12-12,2018-12-12,3.744736438967949
1951-01-01,4.4,2018-12-12,2018-12-12,4.004407435304718
1951-02-01,4.2,2018-12-12,2018-12-12,4.093302929877953
1951-03-01,3.8,2018-12-12,2018-12-12,4.244271567211683
1951-04-01,3.2,2018-12-12,2018-12-12,4.067788010994492
1951-05-01,2.9,2018-12-12,2018-12-12,3.4148482252698047
1951-06-01,3.4,2018-12-12,2018-12-12,2.8526056659761334
1951-07-01,3.3,2018-12-12,2018-12-12,3.2934272001411555
1951-08-01,2.9,2018-12-12,2018-12-12,3.2181684599776155
1951-09-01,3.0,2018-12-12,2018-12-12,3.0438943533917646
1951-10-01,2.8,2018-12-12,2018-12-12,2.9442323753887023
1951-11-01,3.2,2018-12-12,2018-12-12,2.785706111905387
1951-12-01,2.9,2018-12-12,2018-12-12,3.312692729160662
1952-01-01,3.7,2018-12-12,2018-12-12,2.928478380636727
1952-02-01,3.8,2018-12-12,2018-12-12,3.510598905411961
1952-03-01,3.3,2018-12-12,2018-12-12,3.715468249551816
1952-04-01,3.0,2018-12-12,2018-12-12,3.558977805926764
1952-05-01,2.9,2018-12-12,2018-12-12,2.8753092601215102
1952-06-01,3.2,2018-12-12,2018-12-12,2.8522378562678523
1952-07-01,3.3,2018-12-12,2018-12-12,3.194474694813091
1952-08-01,3.1,2018-12-12,2018-12-12,3.3818355965506885
1952-09-01,2.7,2018-12-12,2018-12-12,3.2249369091039313
1952-10-01,2.4,2018-12-12,2018-12-12,2.711151200012956
1952-11-01,2.5,2018-12-12,2018-12-12,2.334409051587398
1952-12-01,2.5,2018-12-12,2018-12-12,2.5888857202842877
1953-01-01,3.4,2018-12-12,2018-12-12,2.4394490326168414
1953-02-01,3.2,2018-12-12,2018-12-12,3.2597439449056336
1953-03-01,2.9,2018-12-12,2018-12-12,3.2361043574927386
1953-04-01,2.8,2018-12-12,2018-12-12,3.1547786186330584
1953-05-01,2.5,2018-12-12,2018-12-12,2.7590350968085837
1953-06-01,2.7,2018-12-12,2018-12-12,2.4111990937362027
1953-07-01,2.7,2018-12-12,2018-12-12,2.760752537807247
1953-08-01,2.4,2018-12-12,2018-12-12,2.5991639512677667
1953-09-01,2.6,2018-12-12,2018-12-12,2.4630954330487396
1953-10-01,2.5,2018-12-12,2018-12-12,2.585702526770242
1953-11-01,3.2,2018-12-12,2018-12-12,2.5366882763797256
1953-12-01,4.2,2018-12-12,2018-12-12,3.0644207903111464
1954-01-01,5.7,2018-12-12,2018-12-12,3.8783761634454823
1954-02-01,6.3,2018-12-12,2018-12-12,5.241027271436987
1954-03-01,6.4,2018-12-12,2018-12-12,6.17787597149272
1954-04-01,6.1,2018-12-12,2018-12-12,6.556803690421617
1954-05-01,5.7,2018-12-12,2018-12-12,5.987750410114917
1954-06-01,5.7,2018-12-12,2018-12-12,5.711387408657799
1954-07-01,5.7,2018-12-12,2018-12-12,5.951487204076125
1954-08-01,5.4,2018-12-12,2018-12-12,5.6136632918548095
1954-09-01,5.3,2018-12-12,2018-12-12,5.401248567361813
1954-10-01,4.6,2018-12-12,2018-12-12,5.388431043329797
1954-11-01,4.9,2018-12-12,2018-12-12,4.569642981833468
1954-12-01,4.8,2018-12-12,2018-12-12,4.959138244973932
1955-01-01,5.8,2018-12-12,2018-12-12,4.788976335376941
1955-02-01,5.7,2018-12-12,2018-12-12,5.8316947245184565
1955-03-01,5.2,2018-12-12,2018-12-12,5.846010606354903
1955-04-01,4.9,2018-12-12,2018-12-12,5.369799886575102
1955-05-01,4.2,2018-12-12,2018-12-12,4.76871892774545
1955-06-01,4.4,2018-12-12,2018-12-12,4.254128621850571
1955-07-01,4.0,2018-12-12,2018-12-12,4.418063320104013
1955-08-01,3.8,2018-12-12,2018-12-12,3.9446084427153396
1955-09-01,3.5,2018-12-12,2018-12-12,3.837586853722069
1955-10-01,3.4,2018-12-12,2018-12-12,3.7268526086417753
1955-11-01,3.8,2018-12-12,2018-12-12,3.3650694141580333
1955-12-01,3.9,2018-12-12,2018-12-12,3.689553351552705
1956-01-01,4.7,2018-12-12,2018-12-12,3.784703395287913
1956-02-01,4.8,2018-12-12,2018-12-12,4.536878050731378
1956-03-01,4.7,2018-12-12,2018-12-12,4.769000512536612
1956-04-01,4.1,2018-12-12,2018-12-12,4.906539735369015
1956-05-01,4.2,2018-12-12,2018-12-12,4.26707239764283
1956-06-01,4.7,2018-12-12,2018-12-12,4.2199759688349125
1956-07-01,4.4,2018-12-12,2018-12-12,4.6617744057451596
1956-08-01,3.7,2018-12-12,2018-12-12,4.212459933588514
1956-09-01,3.4,2018-12-12,2018-12-12,3.885694796707274
1956-10-01,3.1,2018-12-12,2018-12-12,3.4356703367949843
1956-11-01,3.9,2018-12-12,2018-12-12,3.0926903865947053
1956-12-01,4.0,2018-12-12,2018-12-12,3.687841164023854
1957-01-01,4.9,2018-12-12,2018-12-12,4.099349994657681
1957-02-01,4.7,2018-12-12,2018-12-12,4.789652179692878
1957-03-01,4.3,2018-12-12,2018-12-12,4.644513631339993
1957-04-01,4.0,2018-12-12,2018-12-12,4.444631055586827
1957-05-01,3.9,2018-12-12,2018-12-12,3.9906176611658752
1957-06-01,4.6,2018-12-12,2018-12-12,3.877832058229974
1957-07-01,4.1,2018-12-12,2018-12-12,4.472705777913457
1957-08-01,3.7,2018-12-12,2018-12-12,4.331443167724833
1957-09-01,3.7,2018-12-12,2018-12-12,3.942337930671112
1957-10-01,3.6,2018-12-12,2018-12-12,3.6665031377634167
1957-11-01,4.6,2018-12-12,2018-12-12,3.3442253708158893
1957-12-01,5.0,2018-12-12,2018-12-12,4.4062182975514546
1958-01-01,6.8,2018-12-12,2018-12-12,4.828232072221478
1958-02-01,7.7,2018-12-12,2018-12-12,6.577919037772067
1958-03-01,7.7,2018-12-12,2018-12-12,7.251857620464065
1958-04-01,7.5,2018-12-12,2018-12-12,7.964305117620961
1958-05-01,7.1,2018-12-12,2018-12-12,7.435350733791023
1958-06-01,7.6,2018-12-12,2018-12-12,7.010226924149795
1958-07-01,7.4,2018-12-12,2018-12-12,7.538531742237118
1958-08-01,6.7,2018-12-12,2018-12-12,7.390121758625819
1958-09-01,6.0,2018-12-12,2018-12-12,7.007436829945577
1958-10-01,5.5,2018-12-12,2018-12-12,5.964611795679846
1958-11-01,5.6,2018-12-12,2018-12-12,5.706429436573889
1958-12-01,6.0,2018-12-12,2018-12-12,5.856873397734713
1959-01-01,7.0,2018-12-12,2018-12-12,5.909269702771926
1959-02-01,7.0,2018-12-12,2018-12-12,6.751692820869305
1959-03-01,6.4,2018-12-12,2018-12-12,6.8589089834315216
1959-04-01,5.2,2018-12-12,2018-12-12,6.740426345756117
1959-05-01,4.9,2018-12-12,2018-12-12,5.513815298073824
1959-06-01,5.4,2018-12-12,2018-12-12,4.740339742498069
1959-07-01,5.2,2018-12-12,2018-12-12,5.394342124808624
1959-08-01,4.8,2018-12-12,2018-12-12,5.127148305919313
1959-09-01,4.7,2018-12-12,2018-12-12,4.894811394664609
1959-10-01,4.7,2018-12-12,2018-12-12,4.669095072012641
1959-11-01,5.3,2018-12-12,2018-12-12,4.567875742422247
1959-12-01,5.1,2018-12-12,2018-12-12,5.219193391650113
1960-01-01,6.1,2018-12-12,2018-12-12,5.0004939809111315
1960-02-01,5.7,2018-12-12,2018-12-12,6.049255212999719
1960-03-01,6.1,2018-12-12,2018-12-12,6.063864159566459
1960-04-01,5.2,2018-12-12,2018-12-12,6.2246016510391
1960-05-01,4.8,2018-12-12,2018-12-12,5.235607173080278
1960-06-01,5.8,2018-12-12,2018-12-12,4.690733863014705
1960-07-01,5.5,2018-12-12,2018-12-12,5.5562387889680345
1960-08-01,5.2,2018-12-12,2018-12-12,5.698719356040329
1960-09-01,4.7,2018-12-12,2018-12-12,5.277750898873623
1960-10-01,5.0,2018-12-12,2018-12-12,4.774579868974003
1960-11-01,5.6,2018-12-12,2018-12-12,4.81295715878836
1960-12-01,6.4,2018-12-12,2018-12-12,5.486211704022598
1961-01-01,7.7,2018-12-12,2018-12-12,6.1737241450066485
1961-02-01,8.1,2018-12-12,2018-12-12,7.386550958150388
1961-03-01,7.7,2018-12-12,2018-12-12,7.817096525545787
1961-04-01,7.0,2018-12-12,2018-12-12,7.875681799804705
1961-05-01,6.6,2018-12-12,2018-12-12,7.044230484560002
1961-06-01,7.3,2018-12-12,2018-12-12,7.094366508049161
1961-07-01,6.9,2018-12-12,2018-12-12,7.148696092848888
1961-08-01,6.2,2018-12-12,2018-12-12,6.885269200316697
1961-09-01,5.8,2018-12-12,2018-12-12,6.4727797258162
1961-10-01,5.5,2018-12-12,2018-12-12,5.679869060183176
1961-11-01,5.6,2018-12-12,2018-12-12,5.629765115468907
1961-12-01,5.8,2018-12-12,2018-12-12,5.557798351993935
1962-01-01,6.7,2018-12-12,2018-12-12,5.883000737568759
1962-02-01,6.5,2018-12-12,2018-12-12,6.493524696241279
1962-03-01,6.2,2018-12-12,2018-12-12,6.576978907955161
1962-04-01,5.5,2018-12-12,2018-12-12,6.358700000313766
1962-05-01,5.1,2018-12-12,2018-12-12,5.5332471887745065
1962-06-01,5.9,2018-12-12,2018-12-12,4.944159075884849
1962-07-01,5.3,2018-12-12,2018-12-12,5.680602976236
1962-08-01,5.3,2018-12-12,2018-12-12,5.334782690842226
1962-09-01,4.9,2018-12-12,2018-12-12,5.79025656706765
1962-10-01,4.5,2018-12-12,2018-12-12,4.911298462188122
1962-11-01,5.3,2018-12-12,2018-12-12,4.453255671368678
1962-12-01,5.3,2018-12-12,2018-12-12,5.231990491076107
1963-01-01,6.6,2018-12-12,2018-12-12,5.134643895860962
1963-02-01,6.9,2018-12-12,2018-12-12,6.408101809399794
1963-03-01,6.3,2018-12-12,2018-12-12,6.804137058841799
1963-04-01,5.6,2018-12-12,2018-12-12,6.6677181314430065
1963-05-01,5.5,2018-12-12,2018-12-12,5.626041464235471
1963-06-01,6.2,2018-12-12,2018-12-12,5.523363887824378
1963-07-01,5.6,2018-12-12,2018-12-12,6.027362162123856
1963-08-01,5.2,2018-12-12,2018-12-12,5.628216974284516
1963-09-01,4.8,2018-12-12,2018-12-12,5.32781003940694
1963-10-01,4.7,2018-12-12,2018-12-12,4.634992284511671
1963-11-01,5.3,2018-12-12,2018-12-12,4.712089091171201
1963-12-01,5.3,2018-12-12,2018-12-12,5.466488238100261
1964-01-01,6.4,2018-12-12,2018-12-12,5.254697200425458
1964-02-01,6.2,2018-12-12,2018-12-12,6.295958432799998
1964-03-01,5.9,2018-12-12,2018-12-12,6.161918024160653
1964-04-01,5.3,2018-12-12,2018-12-12,6.090153850601456
1964-05-01,4.8,2018-12-12,2018-12-12,5.380079538399045
1964-06-01,5.9,2018-12-12,2018-12-12,4.747718551948268
1964-07-01,4.9,2018-12-12,2018-12-12,5.775030062647322
1964-08-01,4.8,2018-12-12,2018-12-12,5.077656232956309
1964-09-01,4.5,2018-12-12,2018-12-12,5.010641318079798
1964-10-01,4.4,2018-12-12,2018-12-12,4.378201562405711
1964-11-01,4.5,2018-12-12,2018-12-12,4.33931613950739
1964-12-01,4.7,2018-12-12,2018-12-12,4.479275129585013
1965-01-01,5.5,2018-12-12,2018-12-12,4.504086074274492
1965-02-01,5.7,2018-12-12,2018-12-12,5.422997822394819
1965-03-01,5.1,2018-12-12,2018-12-12,5.77647005631352
1965-04-01,4.7,2018-12-12,2018-12-12,5.424268587525347
1965-05-01,4.3,2018-12-12,2018-12-12,4.7400681490592715
1965-06-01,5.3,2018-12-12,2018-12-12,4.312085295058377
1965-07-01,4.5,2018-12-12,2018-12-12,5.101406011493037
1965-08-01,4.2,2018-12-12,2018-12-12,4.5816459069341
1965-09-01,3.8,2018-12-12,2018-12-12,4.4489016400894235
1965-10-01,3.6,2018-12-12,2018-12-12,3.6759131120707753
1965-11-01,3.9,2018-12-12,2018-12-12,3.7178387215323974
1965-12-01,3.7,2018-12-12,2018-12-12,3.9517876445738476
1966-01-01,4.4,2018-12-12,2018-12-12,3.6453627475223556
1966-02-01,4.2,2018-12-12,2018-12-12,4.208641651864645
1966-03-01,4.0,2018-12-12,2018-12-12,4.226268004025241
1966-04-01,3.6,2018-12-12,2018-12-12,4.052205191533858
1966-05-01,3.7,2018-12-12,2018-12-12,3.6772005581910503
1966-06-01,4.6,2018-12-12,2018-12-12,3.6393326871663105
1966-07-01,3.9,2018-12-12,2018-12-12,4.543839463404696
1966-08-01,3.6,2018-12-12,2018-12-12,3.9811242949578762
1966-09-01,3.3,2018-12-12,2018-12-12,3.874527580432519
1966-10-01,3.2,2018-12-12,2018-12-12,3.1545752713966326
1966-11-01,3.4,2018-12-12,2018-12-12,3.190341508079151
1966-12-01,3.5,2018-12-12,2018-12-12,3.451930333579515
1967-01-01,4.2,2018-12-12,2018-12-12,3.355619869280478
1967-02-01,4.2,2018-12-12,2018-12-12,4.17882750247049
1967-03-01,3.9,2018-12-12,2018-12-12,4.193557250176872
1967-04-01,3.5,2018-12-12,2018-12-12,4.062636816084531
1967-05-01,3.2,2018-12-12,2018-12-12,3.4400862295963206
1967-06-01,4.6,2018-12-12,2018-12-12,3.2305771510291503
1967-07-01,4.1,2018-12-12,2018-12-12,4.24477265998716
1967-08-01,3.7,2018-12-12,2018-12-12,4.218069652679268
1967-09-01,3.7,2018-12-12,2018-12-12,3.940342503864705
1967-10-01,3.8,2018-12-12,2018-12-12,3.573414536183958
1967-11-01,3.7,2018-12-12,2018-12-12,3.7510243991110133
1967-12-01,3.5,2018-12-12,2018-12-12,3.8627177909365646
1968-01-01,4.0,2018-12-12,2018-12-12,3.4333742827112133
1968-02-01,4.2,2018-12-12,2018-12-12,3.914448874510167
1968-03-01,3.8,2018-12-12,2018-12-12,4.207458771413268
1968-04-01,3.2,2018-12-12,2018-12-12,3.9109255802402476
1968-05-01,2.9,2018-12-12,2018-12-12,3.3288259282713253
1968-06-01,4.5,2018-12-12,2018-12-12,2.9295692897522922
1968-07-01,4.0,2018-12-12,2018-12-12,4.183386638294178
1968-08-01,3.5,2018-12-12,2018-12-12,3.9187649215724965
1968-09-01,3.3,2018-12-12,2018-12-12,3.902137336829592
1968-10-01,3.2,2018-12-12,2018-12-12,3.090907854518342
1968-11-01,3.3,2018-12-12,2018-12-12,3.1823144890774695
1968-12-01,3.1,2018-12-12,2018-12-12,3.4530967615150883
1969-01-01,3.7,2018-12-12,2018-12-12,3.099207068771335
1969-02-01,3.7,2018-12-12,2018-12-12,3.5111981800599676
1969-03-01,3.5,2018-12-12,2018-12-12,3.744249707651341
1969-04-01,3.2,2018-12-12,2018-12-12,3.6001543254171273
1969-05-01,2.9,2018-12-12,2018-12-12,3.258491029368733
1969-06-01,4.1,2018-12-12,2018-12-12,2.9064524690040017
1969-07-01,3.8,2018-12-12,2018-12-12,3.7868274911274513
1969-08-01,3.5,2018-12-12,2018-12-12,3.836530961695367
1969-09-01,3.7,2018-12-12,2018-12-12,3.9372419300794794
1969-10-01,3.5,2018-12-12,2018-12-12,3.425450462619212
1969-11-01,3.3,2018-12-12,2018-12-12,3.3244411750247953
1969-12-01,3.2,2018-12-12,2018-12-12,3.5687908639136525
1970-01-01,4.2,2018-12-12,2018-12-12,3.0903746508641374
1970-02-01,4.7,2018-12-12,2018-12-12,3.9599431541805887
1970-03-01,4.6,2018-12-12,2018-12-12,4.629378420366222
1970-04-01,4.3,2018-12-12,2018-12-12,4.753772868440852
1970-05-01,4.1,2018-12-12,2018-12-12,4.230609175259973
1970-06-01,5.6,2018-12-12,2018-12-12,4.119027580677983
1970-07-01,5.3,2018-12-12,2018-12-12,5.286448086703956
1970-08-01,5.0,2018-12-12,2018-12-12,5.27304726897247
1970-09-01,5.2,2018-12-12,2018-12-12,5.373272612388048
1970-10-01,5.1,2018-12-12,2018-12-12,4.884612063053018
1970-11-01,5.5,2018-12-12,2018-12-12,5.013188778914968
1970-12-01,5.6,2018-12-12,2018-12-12,5.873421611034424
1971-01-01,6.6,2018-12-12,2018-12-12,5.335674459839044
1971-02-01,6.6,2018-12-12,2018-12-12,6.078857999316476
1971-03-01,6.3,2018-12-12,2018-12-12,6.753232085857077
1971-04-01,5.7,2018-12-12,2018-12-12,6.549061692659471
1971-05-01,5.3,2018-12-12,2018-12-12,5.7678646285381205
1971-06-01,6.5,2018-12-12,2018-12-12,5.314510302226702
1971-07-01,6.2,2018-12-12,2018-12-12,6.306115872213466
1971-08-01,5.9,2018-12-12,2018-12-12,6.10537397224424
1971-09-01,5.8,2018-12-12,2018-12-12,6.3174028830304545
1971-10-01,5.4,2018-12-12,2018-12-12,5.58785257511298
1971-11-01,5.7,2018-12-12,2018-12-12,5.3531244641283395
1971-12-01,5.5,2018-12-12,2018-12-12,5.982766547691385
1972-01-01,6.5,2018-12-12,2018-12-12,5.3191604467723845
1972-02-01,6.4,2018-12-12,2018-12-12,6.25682795406534
1972-03-01,6.1,2018-12-12,2018-12-12,6.708751184776529
1972-04-01,5.5,2018-12-12,2018-12-12,6.215916066159473
1972-05-01,5.1,2018-12-12,2018-12-12,5.2653932641675665
1972-06-01,6.2,2018-12-12,2018-12-12,5.184445933690717
1972-07-01,5.9,2018-12-12,2018-12-12,6.042368338647368
1972-08-01,5.5,2018-12-12,2018-12-12,5.896905622267031
1972-09-01,5.4,2018-12-12,2018-12-12,5.843187368981569
1972-10-01,5.1,2018-12-12,2018-12-12,5.293197106797324
1972-11-01,4.9,2018-12-12,2018-12-12,5.014661229918813
1972-12-01,4.8,2018-12-12,2018-12-12,5.204464612805313
1973-01-01,5.5,2018-12-12,2018-12-12,4.652836247237663
1973-02-01,5.6,2018-12-12,2018-12-12,5.340805434939674
1973-03-01,5.2,2018-12-12,2018-12-12,5.721922169196715
1973-04-01,4.8,2018-12-12,2018-12-12,5.364700943582897
1973-05-01,4.4,2018-12-12,2018-12-12,4.731147549693353
1973-06-01,5.4,2018-12-12,2018-12-12,4.617777743606836
1973-07-01,5.0,2018-12-12,2018-12-12,5.194639778814154
1973-08-01,4.7,2018-12-12,2018-12-12,4.7826844902822145
1973-09-01,4.7,2018-12-12,2018-12-12,4.997065260076147
1973-10-01,4.2,2018-12-12,2018-12-12,4.597451613651057
1973-11-01,4.6,2018-12-12,2018-12-12,4.207438856015722
1973-12-01,4.6,2018-12-12,2018-12-12,4.74124142218998
1974-01-01,5.7,2018-12-12,2018-12-12,4.4928180877704715
1974-02-01,5.8,2018-12-12,2018-12-12,5.320776556989972
1974-03-01,5.3,2018-12-12,2018-12-12,5.932245902989087
1974-04-01,4.8,2018-12-12,2018-12-12,5.457045317599216
1974-05-01,4.6,2018-12-12,2018-12-12,4.835263232125579
1974-06-01,5.8,2018-12-12,2018-12-12,4.658122263735981
1974-07-01,5.7,2018-12-12,2018-12-12,5.593830510558761
1974-08-01,5.3,2018-12-12,2018-12-12,5.5256702183715305
1974-09-01,5.7,2018-12-12,2018-12-12,5.762374114097196
1974-10-01,5.5,2018-12-12,2018-12-12,5.459316437026272
1974-11-01,6.2,2018-12-12,2018-12-12,5.245223428773643
1974-12-01,6.7,2018-12-12,2018-12-12,6.255984802368347
1975-01-01,9.0,2018-12-12,2018-12-12,6.382321990532119
1975-02-01,9.1,2018-12-12,2018-12-12,8.53685616306525
1975-03-01,9.1,2018-12-12,2018-12-12,9.135291273974875
1975-04-01,8.6,2018-12-12,2018-12-12,9.297092519013987
1975-05-01,8.3,2018-12-12,2018-12-12,8.396695192032226
1975-06-01,9.1,2018-12-12,2018-12-12,8.31573177076055
1975-07-01,8.7,2018-12-12,2018-12-12,8.951705011705846
1975-08-01,8.2,2018-12-12,2018-12-12,8.73275769663319
1975-09-01,8.1,2018-12-12,2018-12-12,8.696653956787967
1975-10-01,7.8,2018-12-12,2018-12-12,8.004538644313408
1975-11-01,7.8,2018-12-12,2018-12-12,7.581732377525805
1975-12-01,7.8,2018-12-12,2018-12-12,8.29533816226675
1976-01-01,8.8,2018-12-12,2018-12-12,7.6291995841150095
1976-02-01,8.7,2018-12-12,2018-12-12,8.471200712748953
1976-03-01,8.1,2018-12-12,2018-12-12,8.826513049591709
1976-04-01,7.4,2018-12-12,2018-12-12,8.467811452583332
1976-05-01,6.8,2018-12-12,2018-12-12,7.300696849727915
1976-06-01,8.0,2018-12-12,2018-12-12,6.92819201986023
1976-07-01,7.8,2018-12-12,2018-12-12,7.812364584804464
1976-08-01,7.6,2018-12-12,2018-12-12,7.589599461105835
1976-09-01,7.4,2018-12-12,2018-12-12,7.768051281982818
1976-10-01,7.2,2018-12-12,2018-12-12,7.294145416970704
1976-11-01,7.4,2018-12-12,2018-12-12,7.1461908797928135
1976-12-01,7.4,2018-12-12,2018-12-12,7.695918448918915
1977-01-01,8.3,2018-12-12,2018-12-12,7.3286817828986095
1977-02-01,8.5,2018-12-12,2018-12-12,7.914704632062344
1977-03-01,7.9,2018-12-12,2018-12-12,8.778788277147052
1977-04-01,6.9,2018-12-12,2018-12-12,8.151113050272121
1977-05-01,6.4,2018-12-12,2018-12-12,6.901709590428047
1977-06-01,7.5,2018-12-12,2018-12-12,6.478953001772348
1977-07-01,7.0,2018-12-12,2018-12-12,7.408743684706719
1977-08-01,6.8,2018-12-12,2018-12-12,6.883365199255855
1977-09-01,6.6,2018-12-12,2018-12-12,7.1653754281249835
1977-10-01,6.4,2018-12-12,2018-12-12,6.5428876305206884
1977-11-01,6.5,2018-12-12,2018-12-12,6.241057925994917
1977-12-01,6.0,2018-12-12,2018-12-12,6.52777835433254
1978-01-01,7.1,2018-12-12,2018-12-12,5.995086740167268
1978-02-01,6.9,2018-12-12,2018-12-12,6.858889870735903
1978-03-01,6.6,2018-12-12,2018-12-12,7.116370702015593
1978-04-01,5.8,2018-12-12,2018-12-12,6.8291068333279155
1978-05-01,5.5,2018-12-12,2018-12-12,5.785543572457898
1978-06-01,6.2,2018-12-12,2018-12-12,5.632266605358746
1978-07-01,6.3,2018-12-12,2018-12-12,6.059840371076126
1978-08-01,5.9,2018-12-12,2018-12-12,6.148687905660323
1978-09-01,5.8,2018-12-12,2018-12-12,6.229472644165099
1978-10-01,5.4,2018-12-12,2018-12-12,5.731311658709477
1978-11-01,5.6,2018-12-12,2018-12-12,5.350378136206666
1978-12-01,5.7,2018-12-12,2018-12-12,5.767908726692681
1979-01-01,6.4,2018-12-12,2018-12-12,5.633035558375991
1979-02-01,6.4,2018-12-12,2018-12-12,6.1309688627538055
1979-03-01,6.1,2018-12-12,2018-12-12,6.258738087419199
1979-04-01,5.5,2018-12-12,2018-12-12,6.355588418293513
1979-05-01,5.2,2018-12-12,2018-12-12,5.467380484685964
1979-06-01,6.0,2018-12-12,2018-12-12,5.348319362381471
1979-07-01,5.9,2018-12-12,2018-12-12,5.864836087437035
1979-08-01,5.9,2018-12-12,2018-12-12,5.816815990242961
1979-09-01,5.7,2018-12-12,2018-12-12,6.140405021263227
1979-10-01,5.6,2018-12-12,2018-12-12,5.704396129933815
1979-11-01,5.6,2018-12-12,2018-12-12,5.429205649682055
1979-12-01,5.7,2018-12-12,2018-12-12,5.794790855148306
1980-01-01,6.9,2018-12-12,2018-12-12,5.581604182844389
1980-02-01,6.8,2018-12-12,2018-12-12,6.613542429396677
1980-03-01,6.6,2018-12-12,2018-12-12,6.929189635205679
1980-04-01,6.7,2018-12-12,2018-12-12,6.7664293166527205
1980-05-01,7.1,2018-12-12,2018-12-12,6.49587570338489
1980-06-01,7.8,2018-12-12,2018-12-12,6.788041578269832
1980-07-01,7.9,2018-12-12,2018-12-12,7.659489462355383
1980-08-01,7.6,2018-12-12,2018-12-12,7.7420838656182545
1980-09-01,7.2,2018-12-12,2018-12-12,7.971162785337138
1980-10-01,7.1,2018-12-12,2018-12-12,7.2174933944266195
1980-11-01,7.1,2018-12-12,2018-12-12,7.052408974416204
1980-12-01,6.9,2018-12-12,2018-12-12,7.250302026450295
1981-01-01,8.2,2018-12-12,2018-12-12,6.953487212865478
1981-02-01,8.0,2018-12-12,2018-12-12,7.768134269759983
1981-03-01,7.7,2018-12-12,2018-12-12,8.158935608240167
1981-04-01,7.0,2018-12-12,2018-12-12,7.967929695870657
1981-05-01,7.1,2018-12-12,2018-12-12,6.945791833835303
1981-06-01,7.7,2018-12-12,2018-12-12,7.127766278223344
1981-07-01,7.3,2018-12-12,2018-12-12,7.74095897538413
1981-08-01,7.2,2018-12-12,2018-12-12,7.308579450989725
1981-09-01,7.3,2018-12-12,2018-12-12,7.117122834788126
1981-10-01,7.5,2018-12-12,2018-12-12,7.174303294747051
1981-11-01,7.9,2018-12-12,2018-12-12,7.24859944296042
1981-12-01,8.3,2018-12-12,2018-12-12,7.96822837644529
1982-01-01,9.4,2018-12-12,2018-12-12,8.22176127694134
1982-02-01,9.6,2018-12-12,2018-12-12,9.102718008422961
1982-03-01,9.5,2018-12-12,2018-12-12,9.58188335273989
1982-04-01,9.2,2018-12-12,2018-12-12,9.877674611677355
1982-05-01,9.1,2018-12-12,2018-12-12,8.931195396690985
1982-06-01,9.8,2018-12-12,2018-12-12,9.129485085087273
1982-07-01,9.8,2018-12-12,2018-12-12,9.722865427713991
1982-08-01,9.6,2018-12-12,2018-12-12,9.757855434791612
1982-09-01,9.7,2018-12-12,2018-12-12,9.803558965439603
1982-10-01,9.9,2018-12-12,2018-12-12,9.662239720619397
1982-11-01,10.4,2018-12-12,2018-12-12,9.833035506811918
1982-12-01,10.5,2018-12-12,2018-12-12,10.226038018756567
1983-01-01,11.4,2018-12-12,2018-12-12,10.372940029657222
1983-02-01,11.3,2018-12-12,2018-12-12,11.037257053010654
1983-03-01,10.8,2018-12-12,2018-12-12,11.408405126676811
1983-04-01,10.0,2018-12-12,2018-12-12,11.113919913021698
1983-05-01,9.8,2018-12-12,2018-12-12,10.027505268740162
1983-06-01,10.2,2018-12-12,2018-12-12,9.811839672768663
1983-07-01,9.4,2018-12-12,2018-12-12,10.358077281671472
1983-08-01,9.2,2018-12-12,2018-12-12,9.359403808198886
1983-09-01,8.8,2018-12-12,2018-12-12,9.403342242433379
1983-10-01,8.4,2018-12-12,2018-12-12,8.867223741486619
1983-11-01,8.1,2018-12-12,2018-12-12,8.42703815803866
1983-12-01,8.0,2018-12-12,2018-12-12,8.335976858316021
1984-01-01,8.8,2018-12-12,2018-12-12,8.081151013420953
1984-02-01,8.4,2018-12-12,2018-12-12,8.693846456248231
1984-03-01,8.1,2018-12-12,2018-12-12,8.356325643344238
1984-04-01,7.6,2018-12-12,2018-12-12,8.228658265161034
1984-05-01,7.2,2018-12-12,2018-12-12,7.477331310149685
1984-06-01,7.4,2018-12-12,2018-12-12,7.241071892446417
1984-07-01,7.5,2018-12-12,2018-12-12,7.427948900607887
1984-08-01,7.3,2018-12-12,2018-12-12,7.466978084923101
1984-09-01,7.1,2018-12-12,2018-12-12,7.415410770480029
1984-10-01,7.0,2018-12-12,2018-12-12,7.126043704426418
1984-11-01,6.9,2018-12-12,2018-12-12,6.962261640154017
1984-12-01,7.0,2018-12-12,2018-12-12,6.97781126611511
1985-01-01,8.0,2018-12-12,2018-12-12,6.966631617276273
1985-02-01,7.8,2018-12-12,2018-12-12,7.735760857107584
1985-03-01,7.5,2018-12-12,2018-12-12,7.947917686495245
1985-04-01,7.1,2018-12-12,2018-12-12,7.81727033296516
1985-05-01,7.0,2018-12-12,2018-12-12,7.095360965194047
1985-06-01,7.5,2018-12-12,2018-12-12,6.930494682543184
1985-07-01,7.4,2018-12-12,2018-12-12,7.3727277973562755
1985-08-01,6.9,2018-12-12,2018-12-12,7.215255333439239
1985-09-01,6.9,2018-12-12,2018-12-12,7.038952389790535
1985-10-01,6.8,2018-12-12,2018-12-12,6.970833540640671
1985-11-01,6.7,2018-12-12,2018-12-12,6.7705628813678755
1985-12-01,6.7,2018-12-12,2018-12-12,6.7612818439476685
1986-01-01,7.3,2018-12-12,2018-12-12,6.712309044808244
1986-02-01,7.8,2018-12-12,2018-12-12,7.122723559407027
1986-03-01,7.5,2018-12-12,2018-12-12,7.741723099923974
1986-04-01,7.0,2018-12-12,2018-12-12,7.735651596579078
1986-05-01,7.0,2018-12-12,2018-12-12,6.914867857669001
1986-06-01,7.3,2018-12-12,2018-12-12,7.0317430352395185
1986-07-01,7.0,2018-12-12,2018-12-12,7.40369122265924
1986-08-01,6.7,2018-12-12,2018-12-12,7.0593053059945055
1986-09-01,6.8,2018-12-12,2018-12-12,6.822596129583569
1986-10-01,6.6,2018-12-12,2018-12-12,6.689019287797052
1986-11-01,6.6,2018-12-12,2018-12-12,6.380782895310419
1986-12-01,6.3,2018-12-12,2018-12-12,6.6603461605155605
1987-01-01,7.3,2018-12-12,2018-12-12,6.408375184127732
1987-02-01,7.2,2018-12-12,2018-12-12,7.062142370879155
1987-03-01,6.9,2018-12-12,2018-12-12,7.220893025593891
1987-04-01,6.2,2018-12-12,2018-12-12,7.103564580553006
1987-05-01,6.1,2018-12-12,2018-12-12,6.3502799579221145
1987-06-01,6.3,2018-12-12,2018-12-12,6.05509309079271
1987-07-01,6.1,2018-12-12,2018-12-12,6.318983880482809
1987-08-01,5.8,2018-12-12,2018-12-12,6.082779605180366
1987-09-01,5.7,2018-12-12,2018-12-12,5.939313938680287
1987-10-01,5.7,2018-12-12,2018-12-12,5.765735436974235
1987-11-01,5.6,2018-12-12,2018-12-12,5.698344294066356
1987-12-01,5.4,2018-12-12,2018-12-12,5.728592694069371
1988-01-01,6.3,2018-12-12,2018-12-12,5.352076116238955
1988-02-01,6.2,2018-12-12,2018-12-12,5.927467378327782
1988-03-01,5.9,2018-12-12,2018-12-12,6.126343531987972
1988-04-01,5.3,2018-12-12,2018-12-12,6.230366049558575
1988-05-01,5.4,2018-12-12,2018-12-12,5.308648500690728
1988-06-01,5.5,2018-12-12,2018-12-12,5.339856766748037
1988-07-01,5.5,2018-12-12,2018-12-12,5.473411925280793
1988-08-01,5.4,2018-12-12,2018-12-12,5.585887345447889
1988-09-01,5.2,2018-12-12,2018-12-12,5.444772347892151
1988-10-01,5.0,2018-12-12,2018-12-12,5.226016888947439
1988-11-01,5.2,2018-12-12,2018-12-12,4.9768716754118305
1988-12-01,5.0,2018-12-12,2018-12-12,5.236068219496526
1989-01-01,6.0,2018-12-12,2018-12-12,5.0980637081958635
1989-02-01,5.6,2018-12-12,2018-12-12,5.781374791780481
1989-03-01,5.2,2018-12-12,2018-12-12,5.696749484886802
1989-04-01,5.1,2018-12-12,2018-12-12,5.446599241862955
1989-05-01,5.0,2018-12-12,2018-12-12,4.886419048569836
1989-06-01,5.5,2018-12-12,2018-12-12,4.867063232454871
1989-07-01,5.3,2018-12-12,2018-12-12,5.485831543462649
1989-08-01,5.1,2018-12-12,2018-12-12,5.366773346034763
1989-09-01,5.1,2018-12-12,2018-12-12,5.129582265149029
1989-10-01,5.0,2018-12-12,2018-12-12,5.0859919625799686
1989-11-01,5.2,2018-12-12,2018-12-12,5.062452362095769
1989-12-01,5.1,2018-12-12,2018-12-12,5.163817399218647
1990-01-01,6.0,2018-12-12,2018-12-12,5.091605150916144
1990-02-01,5.9,2018-12-12,2018-12-12,5.827808887823949
1990-03-01,5.5,2018-12-12,2018-12-12,5.869781216297868
1990-04-01,5.3,2018-12-12,2018-12-12,5.874300476954163
1990-05-01,5.2,2018-12-12,2018-12-12,5.174327261256259
1990-06-01,5.4,2018-12-12,2018-12-12,5.185234310310899
1990-07-01,5.6,2018-12-12,2018-12-12,5.529634140435108
1990-08-01,5.5,2018-12-12,2018-12-12,5.386455748942276
1990-09-01,5.6,2018-12-12,2018-12-12,5.472957201938107
1990-10-01,5.5,2018-12-12,2018-12-12,5.5192194073087695
1990-11-01,5.9,2018-12-12,2018-12-12,5.51427979969942
1990-12-01,6.0,2018-12-12,2018-12-12,5.842647110415549
1991-01-01,7.1,2018-12-12,2018-12-12,5.931892666449972
1991-02-01,7.3,2018-12-12,2018-12-12,6.952079668599946
1991-03-01,7.2,2018-12-12,2018-12-12,7.167484766363416
1991-04-01,6.5,2018-12-12,2018-12-12,7.40269531632116
1991-05-01,6.7,2018-12-12,2018-12-12,6.51933781399009
1991-06-01,7.0,2018-12-12,2018-12-12,6.545824734458457
1991-07-01,6.8,2018-12-12,2018-12-12,7.183947243393206
1991-08-01,6.6,2018-12-12,2018-12-12,6.742804192657419
1991-09-01,6.5,2018-12-12,2018-12-12,6.663907303243055
1991-10-01,6.5,2018-12-12,2018-12-12,6.693115488636145
1991-11-01,6.7,2018-12-12,2018-12-12,6.335217818939399
1991-12-01,6.9,2018-12-12,2018-12-12,6.621895302682236
1992-01-01,8.1,2018-12-12,2018-12-12,6.747171855157715
1992-02-01,8.2,2018-12-12,2018-12-12,7.917316082143674
1992-03-01,7.8,2018-12-12,2018-12-12,8.111405248654426
1992-04-01,7.2,2018-12-12,2018-12-12,8.058496816425055
1992-05-01,7.3,2018-12-12,2018-12-12,7.299873170437833
1992-06-01,8.0,2018-12-12,2018-12-12,7.1742974879554104
1992-07-01,7.7,2018-12-12,2018-12-12,7.8305287551433285
1992-08-01,7.4,2018-12-12,2018-12-12,7.789714055606866
1992-09-01,7.3,2018-12-12,2018-12-12,7.41798294321004
1992-10-01,6.9,2018-12-12,2018-12-12,7.429337859573581
1992-11-01,7.1,2018-12-12,2018-12-12,6.921081297169234
1992-12-01,7.1,2018-12-12,2018-12-12,7.092379795861416
1993-01-01,8.0,2018-12-12,2018-12-12,7.257441003789936
1993-02-01,7.8,2018-12-12,2018-12-12,7.743054870354532
1993-03-01,7.4,2018-12-12,2018-12-12,7.766393528820457
1993-04-01,6.9,2018-12-12,2018-12-12,7.603065376223117
1993-05-01,6.8,2018-12-12,2018-12-12,6.929961243747643
1993-06-01,7.2,2018-12-12,2018-12-12,6.686214761267281
1993-07-01,7.0,2018-12-12,2018-12-12,7.160560552421882
1993-08-01,6.6,2018-12-12,2018-12-12,7.132392484077758
1993-09-01,6.4,2018-12-12,2018-12-12,6.7529237120188546
1993-10-01,6.4,2018-12-12,2018-12-12,6.296407703019545
1993-11-01,6.2,2018-12-12,2018-12-12,6.384342720797595
1993-12-01,6.1,2018-12-12,2018-12-12,6.2322181895915065
1994-01-01,7.3,2018-12-12,2018-12-12,6.142623977469227
1994-02-01,7.1,2018-12-12,2018-12-12,7.1072184146641275
1994-03-01,6.8,2018-12-12,2018-12-12,7.095502426279899
1994-04-01,6.2,2018-12-12,2018-12-12,7.1672392369185225
1994-05-01,5.9,2018-12-12,2018-12-12,6.178954850405658
1994-06-01,6.2,2018-12-12,2018-12-12,5.860825221938633
1994-07-01,6.2,2018-12-12,2018-12-12,6.17531854077042
1994-08-01,5.9,2018-12-12,2018-12-12,6.197167176030981
1994-09-01,5.6,2018-12-12,2018-12-12,5.955211036612596
1994-10-01,5.4,2018-12-12,2018-12-12,5.60875053248109
1994-11-01,5.3,2018-12-12,2018-12-12,5.460012475615213
1994-12-01,5.1,2018-12-12,2018-12-12,5.403473569782921
1995-01-01,6.2,2018-12-12,2018-12-12,5.089675402164952
1995-02-01,5.9,2018-12-12,2018-12-12,5.904381425566509
1995-03-01,5.7,2018-12-12,2018-12-12,5.905082869878073
1995-04-01,5.6,2018-12-12,2018-12-12,6.012672775662394
1995-05-01,5.5,2018-12-12,2018-12-12,5.5143600959324495
1995-06-01,5.8,2018-12-12,2018-12-12,5.443860070093595
1995-07-01,5.9,2018-12-12,2018-12-12,5.868904464003832
1995-08-01,5.6,2018-12-12,2018-12-12,5.815157601958993
1995-09-01,5.4,2018-12-12,2018-12-12,5.6757087660219385
1995-10-01,5.2,2018-12-12,2018-12-12,5.439189955891492
1995-11-01,5.3,2018-12-12,2018-12-12,5.18919376990773
1995-12-01,5.2,2018-12-12,2018-12-12,5.257210428127512
1996-01-01,6.3,2018-12-12,2018-12-12,5.177748133985116
1996-02-01,6.0,2018-12-12,2018-12-12,6.082250838408263
1996-03-01,5.8,2018-12-12,2018-12-12,6.058668304105618
1996-04-01,5.4,2018-12-12,2018-12-12,6.083465559680717
1996-05-01,5.4,2018-12-12,2018-12-12,5.260391027451899
1996-06-01,5.5,2018-12-12,2018-12-12,5.333830864195757
1996-07-01,5.6,2018-12-12,2018-12-12,5.684736569726811
1996-08-01,5.1,2018-12-12,2018-12-12,5.528980278681742
1996-09-01,5.0,2018-12-12,2018-12-12,5.206254964496165
1996-10-01,4.9,2018-12-12,2018-12-12,5.1134351504211315
1996-11-01,5.0,2018-12-12,2018-12-12,4.825183881536233
1996-12-01,5.0,2018-12-12,2018-12-12,4.979029490913605
1997-01-01,5.9,2018-12-12,2018-12-12,4.984412284701289
1997-02-01,5.7,2018-12-12,2018-12-12,5.71383421032921
1997-03-01,5.5,2018-12-12,2018-12-12,5.645996346851863
1997-04-01,4.8,2018-12-12,2018-12-12,5.741794559558456
1997-05-01,4.7,2018-12-12,2018-12-12,4.782261366840328
1997-06-01,5.2,2018-12-12,2018-12-12,4.720576677947561
1997-07-01,5.0,2018-12-12,2018-12-12,5.22485209741636
