date,value,realtime_start,realtime_end,predicted
1948-01-01,4.0,2018-12-12,2018-12-12,5.614174657784252
1948-02-01,4.7,2018-12-12,2018-12-12,4.068486704194812
1948-03-01,4.5,2018-12-12,2018-12-12,4.835327336054425
1948-04-01,4.0,2018-12-12,2018-12-12,4.48352125586066
1948-05-01,3.4,2018-12-12,2018-12-12,3.8345229661620577
1948-06-01,3.9,2018-12-12,2018-12-12,3.3845977894761017
1948-07-01,3.9,2018-12-12,2018-12-12,4.360319674323524
1948-08-01,3.6,2018-12-12,2018-12-12,4.123166501378598
1948-09-01,3.4,2018-12-12,2018-12-12,3.6179509849117975
1948-10-01,2.9,2018-12-12,2018-12-12,3.058636944703189
1948-11-01,3.3,2018-12-12,2018-12-12,2.9693068105826423
1948-12-01,3.6,2018-12-12,2018-12-12,3.4708657202971795
1949-01-01,5.0,2018-12-12,2018-12-12,3.9791987238154642
1949-02-01,5.8,2018-12-12,2018-12-12,5.323002487725453
1949-03-01,5.6,2018-12-12,2018-12-12,5.581546906870984
1949-04-01,5.4,2018-12-12,2018-12-12,5.42046358528467
1949-05-01,5.7,2018-12-12,2018-12-12,5.016537411574368
1949-06-01,6.4,2018-12-12,2018-12-12,6.19596976482788
1949-07-01,7.0,2018-12-12,2018-12-12,6.72620180616063
1949-08-01,6.3,2018-12-12,2018-12-12,7.108880751079187
1949-09-01,5.9,2018-12-12,2018-12-12,5.972788856580551
1949-10-01,6.1,2018-12-12,2018-12-12,5.339071903453491
1949-11-01,5.7,2018-12-12,2018-12-12,6.308968770584782
1949-12-01,6.0,2018-12-12,2018-12-12,5.814139934053854
1950-01-01,7.6,2018-12-12,2018-12-12,6.315105586779476
1950-02-01,7.9,2018-12-12,2018-12-12,7.844808857016625
1950-03-01,7.1,2018-12-12,2018-12-12,7.506627702030466
1950-04-01,6.0,2018-12-12,2018-12-12,6.651698928184098
1950-05-01,5.3,2018-12-12,2018-12-12,5.671850060142266
1950-06-01,5.6,2018-12-12,2018-12-12,5.700279228927701
1950-07-01,5.3,2018-12-12,2018-12-12,5.986025870537235
1950-08-01,4.1,2018-12-12,2018-12-12,5.3056523516980985
1950-09-01,4.0,2018-12-12,2018-12-12,3.595554871311134
1950-10-01,3.3,2018-12-12,2018-12-12,3.5817115105458535
1950-11-01,3.8,2018-12-12,2018-12-12,3.4205596169410617
1950-12-01,3.9,2018-12-12,2018-12-12,4.183950239117008
1951-01-01,4.4,2018-12-12,2018-12-12,4.336054663914734
1951-02-01,4.2,2018-12-12,2018-12-12,4.526904692223383
1951-03-01,3.8,2018-12-12,2018-12-12,3.743062365504494
1951-04-01,3.2,2018-12-12,2018-12-12,3.661159654113446
1951-05-01,2.9,2018-12-12,2018-12-12,3.024009235783792
1951-06-01,3.4,2018-12-12,2018-12-12,3.4414383892317146
1951-07-01,3.3,2018-12-12,2018-12-12,3.788703877940251
1951-08-01,2.9,2018-12-12,2018-12-12,3.3169474469070543
1951-09-01,3.0,2018-12-12,2018-12-12,2.655225267372041
1951-10-01,2.8,2018-12-12,2018-12-12,2.6509023447745124
1951-11-01,3.2,2018-12-12,2018-12-12,3.0837113256781095
1951-12-01,2.9,2018-12-12,2018-12-12,3.500607244182767
1952-01-01,3.7,2018-12-12,2018-12-12,3.2902001964880063
1952-02-01,3.8,2018-12-12,2018-12-12,3.885267083797909
1952-03-01,3.3,2018-12-12,2018-12-12,3.469632876269293
1952-04-01,3.0,2018-12-12,2018-12-12,3.18774985657425
1952-05-01,2.9,2018-12-12,2018-12-12,2.8224800694768852
1952-06-01,3.2,2018-12-12,2018-12-12,3.483980146873041
1952-07-01,3.3,2018-12-12,2018-12-12,3.4909539376218772
1952-08-01,3.1,2018-12-12,2018-12-12,3.382920071575979
1952-09-01,2.7,2018-12-12,2018-12-12,2.9360107399746402
1952-10-01,2.4,2018-12-12,2018-12-12,2.268497617083562
1952-11-01,2.5,2018-12-12,2018-12-12,2.68993441511433
1952-12-01,2.5,2018-12-12,2018-12-12,2.7221203795919875
1953-01-01,3.4,2018-12-12,2018-12-12,2.982557920078742
1953-02-01,3.2,2018-12-12,2018-12-12,3.5832429786603646
1953-03-01,2.9,2018-12-12,2018-12-12,2.859405718352081
1953-04-01,2.8,2018-12-12,2018-12-12,2.8253030464008457
1953-05-01,2.5,2018-12-12,2018-12-12,2.684311948466394
1953-06-01,2.7,2018-12-12,2018-12-12,3.0600621710614924
1953-07-01,2.7,2018-12-12,2018-12-12,2.9433887608330234
1953-08-01,2.4,2018-12-12,2018-12-12,2.824667418944425
1953-09-01,2.6,2018-12-12,2018-12-12,2.2239029526921206
1953-10-01,2.5,2018-12-12,2018-12-12,2.3076825489646073
1953-11-01,3.2,2018-12-12,2018-12-12,2.804390602947126
1953-12-01,4.2,2018-12-12,2018-12-12,3.454960342467493
1954-01-01,5.7,2018-12-12,2018-12-12,4.7981783265650355
1954-02-01,6.3,2018-12-12,2018-12-12,5.89987223217736
1954-03-01,6.4,2018-12-12,2018-12-12,6.0141656933245
1954-04-01,6.1,2018-12-12,2018-12-12,6.3030952651803815
1954-05-01,5.7,2018-12-12,2018-12-12,5.852153481011903
1954-06-01,5.7,2018-12-12,2018-12-12,6.143681967597273
1954-07-01,5.7,2018-12-12,2018-12-12,5.830162374396993
1954-08-01,5.4,2018-12-12,2018-12-12,5.730230701608928
1954-09-01,5.3,2018-12-12,2018-12-12,5.115187054678517
1954-10-01,4.6,2018-12-12,2018-12-12,4.863430052932849
1954-11-01,4.9,2018-12-12,2018-12-12,4.71827939743238
1954-12-01,4.8,2018-12-12,2018-12-12,5.074271180079278
1955-01-01,5.8,2018-12-12,2018-12-12,5.212456828970858
1955-02-01,5.7,2018-12-12,2018-12-12,5.933318974999501
1955-03-01,5.2,2018-12-12,2018-12-12,5.297850908610162
1955-04-01,4.9,2018-12-12,2018-12-12,5.017277949804232
1955-05-01,4.2,2018-12-12,2018-12-12,4.657093861083843
1955-06-01,4.4,2018-12-12,2018-12-12,4.65707517438057
1955-07-01,4.0,2018-12-12,2018-12-12,4.606148922148136
1955-08-01,3.8,2018-12-12,2018-12-12,4.019697165639838
1955-09-01,3.5,2018-12-12,2018-12-12,3.6024483621709726
1955-10-01,3.4,2018-12-12,2018-12-12,3.0399380638172744
1955-11-01,3.8,2018-12-12,2018-12-12,3.702651141964341
1955-12-01,3.9,2018-12-12,2018-12-12,3.957070600858664
1956-01-01,4.7,2018-12-12,2018-12-12,4.415901453675152
1956-02-01,4.8,2018-12-12,2018-12-12,4.804320755933828
1956-03-01,4.7,2018-12-12,2018-12-12,4.5084946437272135
1956-04-01,4.1,2018-12-12,2018-12-12,4.618479171291582
1956-05-01,4.2,2018-12-12,2018-12-12,3.7895380585553577
1956-06-01,4.7,2018-12-12,2018-12-12,4.799430293143132
1956-07-01,4.4,2018-12-12,2018-12-12,4.896578601551209
1956-08-01,3.7,2018-12-12,2018-12-12,4.467645858087583
1956-09-01,3.4,2018-12-12,2018-12-12,3.3934608753770332
1956-10-01,3.1,2018-12-12,2018-12-12,3.02759932933116
1956-11-01,3.9,2018-12-12,2018-12-12,3.3693614777996643
1956-12-01,4.0,2018-12-12,2018-12-12,4.105870799411495
1957-01-01,4.9,2018-12-12,2018-12-12,4.464457796389762
1957-02-01,4.7,2018-12-12,2018-12-12,4.971154342065143
1957-03-01,4.3,2018-12-12,2018-12-12,4.400475893653335
1957-04-01,4.0,2018-12-12,2018-12-12,4.232100123826853
1957-05-01,3.9,2018-12-12,2018-12-12,3.7906307831352066
1957-06-01,4.6,2018-12-12,2018-12-12,4.455660719180376
1957-07-01,4.1,2018-12-12,2018-12-12,4.747674240583827
1957-08-01,3.7,2018-12-12,2018-12-12,4.105184112009098
1957-09-01,3.7,2018-12-12,2018-12-12,3.4770630303690107
1957-10-01,3.6,2018-12-12,2018-12-12,3.419717560304692
1957-11-01,4.6,2018-12-12,2018-12-12,3.952733350204051
1957-12-01,5.0,2018-12-12,2018-12-12,4.751065181768569
1958-01-01,6.8,2018-12-12,2018-12-12,5.460098312143876
1958-02-01,7.7,2018-12-12,2018-12-12,6.916339861303692
1958-03-01,7.7,2018-12-12,2018-12-12,7.512756234356326
1958-04-01,7.5,2018-12-12,2018-12-12,7.639817407279788
1958-05-01,7.1,2018-12-12,2018-12-12,7.192984397409154
1958-06-01,7.6,2018-12-12,2018-12-12,7.557089112773115
1958-07-01,7.4,2018-12-12,2018-12-12,7.593963507013412
1958-08-01,6.7,2018-12-12,2018-12-12,7.356017304875785
1958-09-01,6.0,2018-12-12,2018-12-12,6.310789042919311
1958-10-01,5.5,2018-12-12,2018-12-12,5.487836444809867
1958-11-01,5.6,2018-12-12,2018-12-12,5.782992697908288
1958-12-01,6.0,2018-12-12,2018-12-12,5.583254157532531
1959-01-01,7.0,2018-12-12,2018-12-12,6.469965082224293
1959-02-01,7.0,2018-12-12,2018-12-12,6.922987657296602
1959-03-01,6.4,2018-12-12,2018-12-12,6.635371063025492
1959-04-01,5.2,2018-12-12,2018-12-12,6.25977047709545
1959-05-01,4.9,2018-12-12,2018-12-12,4.845974511360586
1959-06-01,5.4,2018-12-12,2018-12-12,5.488346433068176
1959-07-01,5.2,2018-12-12,2018-12-12,5.455151190203228
1959-08-01,4.8,2018-12-12,2018-12-12,5.174711758638594
1959-09-01,4.7,2018-12-12,2018-12-12,4.424039153637498
1959-10-01,4.7,2018-12-12,2018-12-12,4.375193232605058
1959-11-01,5.3,2018-12-12,2018-12-12,5.108550574776171
1959-12-01,5.1,2018-12-12,2018-12-12,5.448674051165697
1960-01-01,6.1,2018-12-12,2018-12-12,5.490080526676463
1960-02-01,5.7,2018-12-12,2018-12-12,6.015004369143537
1960-03-01,6.1,2018-12-12,2018-12-12,5.30622846513142
1960-04-01,5.2,2018-12-12,2018-12-12,6.132973607621505
1960-05-01,4.8,2018-12-12,2018-12-12,4.894114979183671
1960-06-01,5.8,2018-12-12,2018-12-12,5.384850068123093
1960-07-01,5.5,2018-12-12,2018-12-12,5.895685690683946
1960-08-01,5.2,2018-12-12,2018-12-12,5.52126322851188
1960-09-01,4.7,2018-12-12,2018-12-12,4.787755289659643
1960-10-01,5.0,2018-12-12,2018-12-12,4.320490942149378
1960-11-01,5.6,2018-12-12,2018-12-12,5.465018858089392
1960-12-01,6.4,2018-12-12,2018-12-12,5.683320678301065
1961-01-01,7.7,2018-12-12,2018-12-12,6.995033435709544
1961-02-01,8.1,2018-12-12,2018-12-12,7.513821355496766
1961-03-01,7.7,2018-12-12,2018-12-12,7.841050957121578
1961-04-01,7.0,2018-12-12,2018-12-12,7.483359294183767
1961-05-01,6.6,2018-12-12,2018-12-12,6.749302060588423
1961-06-01,7.3,2018-12-12,2018-12-12,7.162106984516583
1961-07-01,6.9,2018-12-12,2018-12-12,7.274749683629702
1961-08-01,6.2,2018-12-12,2018-12-12,6.835991248283511
1961-09-01,5.8,2018-12-12,2018-12-12,5.630992102683916
1961-10-01,5.5,2018-12-12,2018-12-12,5.444810939471374
1961-11-01,5.6,2018-12-12,2018-12-12,5.855649391549609
1961-12-01,5.8,2018-12-12,2018-12-12,5.647470782831175
1962-01-01,6.7,2018-12-12,2018-12-12,6.297573068582254
1962-02-01,6.5,2018-12-12,2018-12-12,6.460413414865222
1962-03-01,6.2,2018-12-12,2018-12-12,6.1485876528380565
1962-04-01,5.5,2018-12-12,2018-12-12,6.039448232481317
1962-05-01,5.1,2018-12-12,2018-12-12,5.317049485367293
1962-06-01,5.9,2018-12-12,2018-12-12,5.718705160941206
1962-07-01,5.3,2018-12-12,2018-12-12,5.934708627856938
1962-08-01,5.3,2018-12-12,2018-12-12,5.244921444643977
1962-09-01,4.9,2018-12-12,2018-12-12,4.86356830220434
1962-10-01,4.5,2018-12-12,2018-12-12,4.567249017209061
1962-11-01,5.3,2018-12-12,2018-12-12,4.870881448700113
1962-12-01,5.3,2018-12-12,2018-12-12,5.485135742936741
1963-01-01,6.6,2018-12-12,2018-12-12,5.816941562065381
1963-02-01,6.9,2018-12-12,2018-12-12,6.39889224111818
1963-03-01,6.3,2018-12-12,2018-12-12,6.620967405306749
1963-04-01,5.6,2018-12-12,2018-12-12,6.076368854302761
1963-05-01,5.5,2018-12-12,2018-12-12,5.386770477064779
1963-06-01,6.2,2018-12-12,2018-12-12,6.2377256676199675
1963-07-01,5.6,2018-12-12,2018-12-12,6.187442132043855
1963-08-01,5.2,2018-12-12,2018-12-12,5.538597161662557
1963-09-01,4.8,2018-12-12,2018-12-12,4.668601815122365
1963-10-01,4.7,2018-12-12,2018-12-12,4.452571248750008
1963-11-01,5.3,2018-12-12,2018-12-12,5.158392950988134
1963-12-01,5.3,2018-12-12,2018-12-12,5.438233743465323
1964-01-01,6.4,2018-12-12,2018-12-12,5.832245760653303
1964-02-01,6.2,2018-12-12,2018-12-12,6.152025864183155
1964-03-01,5.9,2018-12-12,2018-12-12,5.853007963398329
1964-04-01,5.3,2018-12-12,2018-12-12,5.754065368428038
1964-05-01,4.8,2018-12-12,2018-12-12,5.111659606087141
1964-06-01,5.9,2018-12-12,2018-12-12,5.49064641366665
1964-07-01,4.9,2018-12-12,2018-12-12,5.939263599549002
1964-08-01,4.8,2018-12-12,2018-12-12,4.8125338068759635
1964-09-01,4.5,2018-12-12,2018-12-12,4.333347502286635
1964-10-01,4.4,2018-12-12,2018-12-12,4.172858676340216
1964-11-01,4.5,2018-12-12,2018-12-12,4.8974036999358335
1964-12-01,4.7,2018-12-12,2018-12-12,4.508386487380194
1965-01-01,5.5,2018-12-12,2018-12-12,5.356596548817043
1965-02-01,5.7,2018-12-12,2018-12-12,5.190306247164113
1965-03-01,5.1,2018-12-12,2018-12-12,5.475252552306552
1965-04-01,4.7,2018-12-12,2018-12-12,4.895164883208017
1965-05-01,4.3,2018-12-12,2018-12-12,4.548094330232572
1965-06-01,5.3,2018-12-12,2018-12-12,5.037211539639397
1965-07-01,4.5,2018-12-12,2018-12-12,5.336642997078053
1965-08-01,4.2,2018-12-12,2018-12-12,4.484833367718336
1965-09-01,3.8,2018-12-12,2018-12-12,3.7143414237994485
1965-10-01,3.6,2018-12-12,2018-12-12,3.468494842203529
1965-11-01,3.9,2018-12-12,2018-12-12,4.097607621160383
1965-12-01,3.7,2018-12-12,2018-12-12,3.9642799179013712
1966-01-01,4.4,2018-12-12,2018-12-12,4.3138741959630975
1966-02-01,4.2,2018-12-12,2018-12-12,4.121452715876567
1966-03-01,4.0,2018-12-12,2018-12-12,3.951637384955986
1966-04-01,3.6,2018-12-12,2018-12-12,3.923245085312197
1966-05-01,3.7,2018-12-12,2018-12-12,3.44204353632913
1966-06-01,4.6,2018-12-12,2018-12-12,4.543766547129193
1966-07-01,3.9,2018-12-12,2018-12-12,4.598420748679666
1966-08-01,3.6,2018-12-12,2018-12-12,3.965720711626793
1966-09-01,3.3,2018-12-12,2018-12-12,3.144609122496946
1966-10-01,3.2,2018-12-12,2018-12-12,3.0369429151041407
1966-11-01,3.4,2018-12-12,2018-12-12,3.702643486733221
1966-12-01,3.5,2018-12-12,2018-12-12,3.422107774659336
1967-01-01,4.2,2018-12-12,2018-12-12,4.170322939258288
1967-02-01,4.2,2018-12-12,2018-12-12,3.9212976164962896
1967-03-01,3.9,2018-12-12,2018-12-12,4.0420503812301085
1967-04-01,3.5,2018-12-12,2018-12-12,3.7992296899495512
1967-05-01,3.2,2018-12-12,2018-12-12,3.359255390639299
1967-06-01,4.6,2018-12-12,2018-12-12,3.94881602617179
1967-07-01,4.1,2018-12-12,2018-12-12,4.686243751074127
1967-08-01,3.7,2018-12-12,2018-12-12,4.197086447996855
1967-09-01,3.7,2018-12-12,2018-12-12,3.2233994701744986
1967-10-01,3.8,2018-12-12,2018-12-12,3.4888992500173055
1967-11-01,3.7,2018-12-12,2018-12-12,4.328809836939598
1967-12-01,3.5,2018-12-12,2018-12-12,3.647251673584528
1968-01-01,4.0,2018-12-12,2018-12-12,4.109879697175272
1968-02-01,4.2,2018-12-12,2018-12-12,3.708710462915856
1968-03-01,3.8,2018-12-12,2018-12-12,4.091881276288017
1968-04-01,3.2,2018-12-12,2018-12-12,3.6769725393182338
1968-05-01,2.9,2018-12-12,2018-12-12,3.0157354538236705
1968-06-01,4.5,2018-12-12,2018-12-12,3.6414696562062026
1968-07-01,4.0,2018-12-12,2018-12-12,4.647372138196127
1968-08-01,3.5,2018-12-12,2018-12-12,4.099941539486974
1968-09-01,3.3,2018-12-12,2018-12-12,3.0207554026046375
1968-10-01,3.2,2018-12-12,2018-12-12,3.060084288089194
1968-11-01,3.3,2018-12-12,2018-12-12,3.709222249233088
1968-12-01,3.1,2018-12-12,2018-12-12,3.3032569225604775
1969-01-01,3.7,2018-12-12,2018-12-12,3.7106560996272178
1969-02-01,3.7,2018-12-12,2018-12-12,3.4373558417091914
1969-03-01,3.5,2018-12-12,2018-12-12,3.5561990309110754
1969-04-01,3.2,2018-12-12,2018-12-12,3.4446065017243845
1969-05-01,2.9,2018-12-12,2018-12-12,3.066182208515801
1969-06-01,4.1,2018-12-12,2018-12-12,3.6432011503644333
1969-07-01,3.8,2018-12-12,2018-12-12,4.167963980469683
1969-08-01,3.5,2018-12-12,2018-12-12,3.951718422977663
1969-09-01,3.7,2018-12-12,2018-12-12,3.0749891886982543
1969-10-01,3.5,2018-12-12,2018-12-12,3.5114353729012007
1969-11-01,3.3,2018-12-12,2018-12-12,3.9608337081579164
1969-12-01,3.2,2018-12-12,2018-12-12,3.2433389401437775
1970-01-01,4.2,2018-12-12,2018-12-12,3.836163815884576
1970-02-01,4.7,2018-12-12,2018-12-12,4.0337676625876195
1970-03-01,4.6,2018-12-12,2018-12-12,4.595357413876537
1970-04-01,4.3,2018-12-12,2018-12-12,4.494911769836024
1970-05-01,4.1,2018-12-12,2018-12-12,4.106316019087606
1970-06-01,5.6,2018-12-12,2018-12-12,4.833385234465251
1970-07-01,5.3,2018-12-12,2018-12-12,5.734087630777246
1970-08-01,5.0,2018-12-12,2018-12-12,5.406217954752927
1970-09-01,5.2,2018-12-12,2018-12-12,4.524339024559803
1970-10-01,5.1,2018-12-12,2018-12-12,4.918703835714054
1970-11-01,5.5,2018-12-12,2018-12-12,5.518495961371976
1970-12-01,5.6,2018-12-12,2018-12-12,5.4979064010004075
1971-01-01,6.6,2018-12-12,2018-12-12,6.207010325804293
1971-02-01,6.6,2018-12-12,2018-12-12,6.378943065285607
1971-03-01,6.3,2018-12-12,2018-12-12,6.322877760689014
1971-04-01,5.7,2018-12-12,2018-12-12,6.1343791076127445
1971-05-01,5.3,2018-12-12,2018-12-12,5.398032788759272
1971-06-01,6.5,2018-12-12,2018-12-12,5.977383368305306
1971-07-01,6.2,2018-12-12,2018-12-12,6.537479944977079
1971-08-01,5.9,2018-12-12,2018-12-12,6.272024474719738
1971-09-01,5.8,2018-12-12,2018-12-12,5.398250732217757
1971-10-01,5.4,2018-12-12,2018-12-12,5.43444619651214
1971-11-01,5.7,2018-12-12,2018-12-12,5.774940210457055
1971-12-01,5.5,2018-12-12,2018-12-12,5.68185871058469
1972-01-01,6.5,2018-12-12,2018-12-12,6.066533869167936
1972-02-01,6.4,2018-12-12,2018-12-12,6.270475022824458
1972-03-01,6.1,2018-12-12,2018-12-12,6.0879180580164345
1972-04-01,5.5,2018-12-12,2018-12-12,5.945745281421899
1972-05-01,5.1,2018-12-12,2018-12-12,5.192455274483327
1972-06-01,6.2,2018-12-12,2018-12-12,5.818842530724603
1972-07-01,5.9,2018-12-12,2018-12-12,6.220898683180578
1972-08-01,5.5,2018-12-12,2018-12-12,5.985253321221944
1972-09-01,5.4,2018-12-12,2018-12-12,4.98137205260787
1972-10-01,5.1,2018-12-12,2018-12-12,5.029601121074647
1972-11-01,4.9,2018-12-12,2018-12-12,5.519306162301664
1972-12-01,4.8,2018-12-12,2018-12-12,4.812052270458592
1973-01-01,5.5,2018-12-12,2018-12-12,5.43371966528572
1973-02-01,5.6,2018-12-12,2018-12-12,5.243670745265364
1973-03-01,5.2,2018-12-12,2018-12-12,5.348140864844821
1973-04-01,4.8,2018-12-12,2018-12-12,5.021714009625667
1973-05-01,4.4,2018-12-12,2018-12-12,4.556048932227677
1973-06-01,5.4,2018-12-12,2018-12-12,5.1294576308631825
1973-07-01,5.0,2018-12-12,2018-12-12,5.463736318233398
1973-08-01,4.7,2018-12-12,2018-12-12,5.096622985434602
1973-09-01,4.7,2018-12-12,2018-12-12,4.232005341261587
1973-10-01,4.2,2018-12-12,2018-12-12,4.350931281278138
1973-11-01,4.6,2018-12-12,2018-12-12,4.579522093349232
1973-12-01,4.6,2018-12-12,2018-12-12,4.64448855185282
1974-01-01,5.7,2018-12-12,2018-12-12,5.252941349716274
1974-02-01,5.8,2018-12-12,2018-12-12,5.538035358867032
1974-03-01,5.3,2018-12-12,2018-12-12,5.51434760075066
1974-04-01,4.8,2018-12-12,2018-12-12,5.118993800212393
1974-05-01,4.6,2018-12-12,2018-12-12,4.518370827314898
1974-06-01,5.8,2018-12-12,2018-12-12,5.3836394271501415
1974-07-01,5.7,2018-12-12,2018-12-12,5.886548520024911
1974-08-01,5.3,2018-12-12,2018-12-12,5.806713951521226
1974-09-01,5.7,2018-12-12,2018-12-12,4.793609198089932
1974-10-01,5.5,2018-12-12,2018-12-12,5.375839728008947
1974-11-01,6.2,2018-12-12,2018-12-12,5.918069430254395
1974-12-01,6.7,2018-12-12,2018-12-12,6.253800742066914
1975-01-01,9.0,2018-12-12,2018-12-12,7.356485992216879
1975-02-01,9.1,2018-12-12,2018-12-12,8.955961661579583
1975-03-01,9.1,2018-12-12,2018-12-12,8.653554818170134
1975-04-01,8.6,2018-12-12,2018-12-12,8.916200841809843
1975-05-01,8.3,2018-12-12,2018-12-12,8.20695159561901
1975-06-01,9.1,2018-12-12,2018-12-12,9.017632003595562
1975-07-01,8.7,2018-12-12,2018-12-12,8.998249582594207
1975-08-01,8.2,2018-12-12,2018-12-12,8.661198379470655
1975-09-01,8.1,2018-12-12,2018-12-12,7.552874992013839
1975-10-01,7.8,2018-12-12,2018-12-12,7.589651389935918
1975-11-01,7.8,2018-12-12,2018-12-12,8.161882460118616
1975-12-01,7.8,2018-12-12,2018-12-12,7.6831782818707275
1976-01-01,8.8,2018-12-12,2018-12-12,8.389018790494886
1976-02-01,8.7,2018-12-12,2018-12-12,8.495278529540974
1976-03-01,8.1,2018-12-12,2018-12-12,8.254316496776802
1976-04-01,7.4,2018-12-12,2018-12-12,7.7981139210913035
1976-05-01,6.8,2018-12-12,2018-12-12,7.013602797571499
1976-06-01,8.0,2018-12-12,2018-12-12,7.493622491748231
1976-07-01,7.8,2018-12-12,2018-12-12,8.030189803327572
1976-08-01,7.6,2018-12-12,2018-12-12,7.8191297567689695
1976-09-01,7.4,2018-12-12,2018-12-12,7.010203222942081
1976-10-01,7.2,2018-12-12,2018-12-12,6.872981677636125
1976-11-01,7.4,2018-12-12,2018-12-12,7.606163807077574
1976-12-01,7.4,2018-12-12,2018-12-12,7.352102346989225
1977-01-01,8.3,2018-12-12,2018-12-12,8.02174593669517
1977-02-01,8.5,2018-12-12,2018-12-12,7.9781741847718175
1977-03-01,7.9,2018-12-12,2018-12-12,8.103445693798847
1977-04-01,6.9,2018-12-12,2018-12-12,7.586008582791334
1977-05-01,6.4,2018-12-12,2018-12-12,6.475071583951433
1977-06-01,7.5,2018-12-12,2018-12-12,7.148448036513643
1977-07-01,7.0,2018-12-12,2018-12-12,7.552795658038455
1977-08-01,6.8,2018-12-12,2018-12-12,6.989113055420328
1977-09-01,6.6,2018-12-12,2018-12-12,6.209022171655759
1977-10-01,6.4,2018-12-12,2018-12-12,6.089169073844698
1977-11-01,6.5,2018-12-12,2018-12-12,6.818468634736343
1977-12-01,6.0,2018-12-12,2018-12-12,6.477965655096538
1978-01-01,7.1,2018-12-12,2018-12-12,6.600814062847132
1978-02-01,6.9,2018-12-12,2018-12-12,6.861950265614704
1978-03-01,6.6,2018-12-12,2018-12-12,6.479366563934334
1978-04-01,5.8,2018-12-12,2018-12-12,6.35303513179822
1978-05-01,5.5,2018-12-12,2018-12-12,5.410829042906306
1978-06-01,6.2,2018-12-12,2018-12-12,6.334708653567958
1978-07-01,6.3,2018-12-12,2018-12-12,6.202450116886714
1978-08-01,5.9,2018-12-12,2018-12-12,6.49215444145173
1978-09-01,5.8,2018-12-12,2018-12-12,5.273977232052305
1978-10-01,5.4,2018-12-12,2018-12-12,5.3311695644632575
1978-11-01,5.6,2018-12-12,2018-12-12,5.764951201639664
1978-12-01,5.7,2018-12-12,2018-12-12,5.638769971559562
1979-01-01,6.4,2018-12-12,2018-12-12,6.435731633821262
1979-02-01,6.4,2018-12-12,2018-12-12,6.121099911068007
1979-03-01,6.1,2018-12-12,2018-12-12,6.041034047962844
1979-04-01,5.5,2018-12-12,2018-12-12,5.83602599157329
1979-05-01,5.2,2018-12-12,2018-12-12,5.180343645313918
1979-06-01,6.0,2018-12-12,2018-12-12,5.992771601536616
1979-07-01,5.9,2018-12-12,2018-12-12,6.073904707666556
1979-08-01,5.9,2018-12-12,2018-12-12,6.056180511540781
1979-09-01,5.7,2018-12-12,2018-12-12,5.3679438851803045
1979-10-01,5.6,2018-12-12,2018-12-12,5.214134352761663
1979-11-01,5.6,2018-12-12,2018-12-12,5.97232269107449
1979-12-01,5.7,2018-12-12,2018-12-12,5.609542405777368
1980-01-01,6.9,2018-12-12,2018-12-12,6.436640068503183
1980-02-01,6.8,2018-12-12,2018-12-12,6.719391969001051
1980-03-01,6.6,2018-12-12,2018-12-12,6.431537417239028
1980-04-01,6.7,2018-12-12,2018-12-12,6.292653448698832
1980-05-01,7.1,2018-12-12,2018-12-12,6.472275897807533
1980-06-01,7.8,2018-12-12,2018-12-12,7.933087201073214
1980-07-01,7.9,2018-12-12,2018-12-12,7.788829209476738
1980-08-01,7.6,2018-12-12,2018-12-12,8.0648552293195
1980-09-01,7.2,2018-12-12,2018-12-12,6.975338931240794
1980-10-01,7.1,2018-12-12,2018-12-12,6.6825121119326045
1980-11-01,7.1,2018-12-12,2018-12-12,7.379199929370804
1980-12-01,6.9,2018-12-12,2018-12-12,7.059236144899792
1981-01-01,8.2,2018-12-12,2018-12-12,7.49795475174814
1981-02-01,8.0,2018-12-12,2018-12-12,8.011871225516833
1981-03-01,7.7,2018-12-12,2018-12-12,7.627281696487153
1981-04-01,7.0,2018-12-12,2018-12-12,7.341413396495617
1981-05-01,7.1,2018-12-12,2018-12-12,6.633622857823442
1981-06-01,7.7,2018-12-12,2018-12-12,7.847616457602896
1981-07-01,7.3,2018-12-12,2018-12-12,7.667730843722573
1981-08-01,7.2,2018-12-12,2018-12-12,7.409115600716264
1981-09-01,7.3,2018-12-12,2018-12-12,6.603693199997526
1981-10-01,7.5,2018-12-12,2018-12-12,6.908883625618087
1981-11-01,7.9,2018-12-12,2018-12-12,7.776655622062373
1981-12-01,8.3,2018-12-12,2018-12-12,7.882288513014613
1982-01-01,9.4,2018-12-12,2018-12-12,8.965038793808077
1982-02-01,9.6,2018-12-12,2018-12-12,9.128947725760506
1982-03-01,9.5,2018-12-12,2018-12-12,9.31186374948842
1982-04-01,9.2,2018-12-12,2018-12-12,9.106884488771588
1982-05-01,9.1,2018-12-12,2018-12-12,8.852486870290125
1982-06-01,9.8,2018-12-12,2018-12-12,9.679578610686644
1982-07-01,9.8,2018-12-12,2018-12-12,9.726623040540492
1982-08-01,9.6,2018-12-12,2018-12-12,9.922716877692189
1982-09-01,9.7,2018-12-12,2018-12-12,8.937814671613658
1982-10-01,9.9,2018-12-12,2018-12-12,9.255569107503938
1982-11-01,10.4,2018-12-12,2018-12-12,10.06444119303058
1982-12-01,10.5,2018-12-12,2018-12-12,10.326365887239485
1983-01-01,11.4,2018-12-12,2018-12-12,11.000794985362518
1983-02-01,11.3,2018-12-12,2018-12-12,11.069217939763648
1983-03-01,10.8,2018-12-12,2018-12-12,10.93126292434613
1983-04-01,10.0,2018-12-12,2018-12-12,10.314118825504917
1983-05-01,9.8,2018-12-12,2018-12-12,9.538486151893125
1983-06-01,10.2,2018-12-12,2018-12-12,10.297384313482809
1983-07-01,9.4,2018-12-12,2018-12-12,10.05752465560862
1983-08-01,9.2,2018-12-12,2018-12-12,9.381232224094887
1983-09-01,8.8,2018-12-12,2018-12-12,8.59145449485832
1983-10-01,8.4,2018-12-12,2018-12-12,8.328999664392127
1983-11-01,8.1,2018-12-12,2018-12-12,8.488551748375405
1983-12-01,8.0,2018-12-12,2018-12-12,7.930052875798441
1984-01-01,8.8,2018-12-12,2018-12-12,8.539761183449894
1984-02-01,8.4,2018-12-12,2018-12-12,8.525194168617812
1984-03-01,8.1,2018-12-12,2018-12-12,8.09364188435654
1984-04-01,7.6,2018-12-12,2018-12-12,7.717966503668125
1984-05-01,7.2,2018-12-12,2018-12-12,7.275033775824462
1984-06-01,7.4,2018-12-12,2018-12-12,7.716091612206661
1984-07-01,7.5,2018-12-12,2018-12-12,7.293275092416657
1984-08-01,7.3,2018-12-12,2018-12-12,7.742636737525517
1984-09-01,7.1,2018-12-12,2018-12-12,6.735578470927216
1984-10-01,7.0,2018-12-12,2018-12-12,6.7261035897618315
1984-11-01,6.9,2018-12-12,2018-12-12,7.145407180881538
1984-12-01,7.0,2018-12-12,2018-12-12,6.830273404529012
1985-01-01,8.0,2018-12-12,2018-12-12,7.590243369380849
1985-02-01,7.8,2018-12-12,2018-12-12,7.807551381729685
1985-03-01,7.5,2018-12-12,2018-12-12,7.5581614939639294
1985-04-01,7.1,2018-12-12,2018-12-12,7.108084474826138
1985-05-01,7.0,2018-12-12,2018-12-12,6.828991709405951
1985-06-01,7.5,2018-12-12,2018-12-12,7.544747763398129
1985-07-01,7.4,2018-12-12,2018-12-12,7.4709327887662855
1985-08-01,6.9,2018-12-12,2018-12-12,7.595056587819269
1985-09-01,6.9,2018-12-12,2018-12-12,6.299635665940821
1985-10-01,6.8,2018-12-12,2018-12-12,6.601101227396291
1985-11-01,6.7,2018-12-12,2018-12-12,6.931083414535552
1985-12-01,6.7,2018-12-12,2018-12-12,6.64368708368694
1986-01-01,7.3,2018-12-12,2018-12-12,7.237180239835371
1986-02-01,7.8,2018-12-12,2018-12-12,7.081675986531087
1986-03-01,7.5,2018-12-12,2018-12-12,7.702302984133748
1986-04-01,7.0,2018-12-12,2018-12-12,7.108305084038922
1986-05-01,7.0,2018-12-12,2018-12-12,6.718607073003465
1986-06-01,7.3,2018-12-12,2018-12-12,7.499743763952418
1986-07-01,7.0,2018-12-12,2018-12-12,7.298613111126905
1986-08-01,6.7,2018-12-12,2018-12-12,7.145179662922038
1986-09-01,6.8,2018-12-12,2018-12-12,6.191070053185668
1986-10-01,6.6,2018-12-12,2018-12-12,6.520926738823044
1986-11-01,6.6,2018-12-12,2018-12-12,6.6596330388127996
1986-12-01,6.3,2018-12-12,2018-12-12,6.586042588521339
1987-01-01,7.3,2018-12-12,2018-12-12,6.75567838835911
1987-02-01,7.2,2018-12-12,2018-12-12,7.229117601691557
1987-03-01,6.9,2018-12-12,2018-12-12,7.0038507254209055
1987-04-01,6.2,2018-12-12,2018-12-12,6.537761320441737
1987-05-01,6.1,2018-12-12,2018-12-12,5.885059278307266
1987-06-01,6.3,2018-12-12,2018-12-12,6.588173694348405
1987-07-01,6.1,2018-12-12,2018-12-12,6.313045717922084
1987-08-01,5.8,2018-12-12,2018-12-12,6.307141027910408
1987-09-01,5.7,2018-12-12,2018-12-12,5.336119465017951
1987-10-01,5.7,2018-12-12,2018-12-12,5.418157877445819
1987-11-01,5.6,2018-12-12,2018-12-12,5.8075736829420395
1987-12-01,5.4,2018-12-12,2018-12-12,5.588569555069499
1988-01-01,6.3,2018-12-12,2018-12-12,5.896615815225892
1988-02-01,6.2,2018-12-12,2018-12-12,6.2486800922069
1988-03-01,5.9,2018-12-12,2018-12-12,6.064320728541601
1988-04-01,5.3,2018-12-12,2018-12-12,5.5575645436033065
1988-05-01,5.4,2018-12-12,2018-12-12,5.0389505119006035
1988-06-01,5.5,2018-12-12,2018-12-12,5.909417430966089
1988-07-01,5.5,2018-12-12,2018-12-12,5.516367806634627
1988-08-01,5.4,2018-12-12,2018-12-12,5.773134427397493
1988-09-01,5.2,2018-12-12,2018-12-12,4.994515227275031
1988-10-01,5.0,2018-12-12,2018-12-12,4.9441914798457205
1988-11-01,5.2,2018-12-12,2018-12-12,5.057980535693557
1988-12-01,5.0,2018-12-12,2018-12-12,5.269771672888265
1989-01-01,6.0,2018-12-12,2018-12-12,5.485173522053058
1989-02-01,5.6,2018-12-12,2018-12-12,5.977018037007317
1989-03-01,5.2,2018-12-12,2018-12-12,5.44199747005486
1989-04-01,5.1,2018-12-12,2018-12-12,4.873042147482363
1989-05-01,5.0,2018-12-12,2018-12-12,4.954476873571795
1989-06-01,5.5,2018-12-12,2018-12-12,5.45901783828756
1989-07-01,5.3,2018-12-12,2018-12-12,5.562087732753819
1989-08-01,5.1,2018-12-12,2018-12-12,5.527756525076467
1989-09-01,5.1,2018-12-12,2018-12-12,4.722209181910789
1989-10-01,5.0,2018-12-12,2018-12-12,4.898070070436992
1989-11-01,5.2,2018-12-12,2018-12-12,5.111955545949934
1989-12-01,5.1,2018-12-12,2018-12-12,5.216398465604895
1990-01-01,6.0,2018-12-12,2018-12-12,5.575448405186202
1990-02-01,5.9,2018-12-12,2018-12-12,5.953948578501422
1990-03-01,5.5,2018-12-12,2018-12-12,5.801691787211907
1990-04-01,5.3,2018-12-12,2018-12-12,5.215836526281469
1990-05-01,5.2,2018-12-12,2018-12-12,5.116192297766698
1990-06-01,5.4,2018-12-12,2018-12-12,5.64059411239341
1990-07-01,5.6,2018-12-12,2018-12-12,5.389067962294968
1990-08-01,5.5,2018-12-12,2018-12-12,5.876379041445776
1990-09-01,5.6,2018-12-12,2018-12-12,5.156858628785946
1990-10-01,5.5,2018-12-12,2018-12-12,5.400976692025533
1990-11-01,5.9,2018-12-12,2018-12-12,5.597311879031657
1990-12-01,6.0,2018-12-12,2018-12-12,5.937373476782986
1991-01-01,7.1,2018-12-12,2018-12-12,6.448754918527173
1991-02-01,7.3,2018-12-12,2018-12-12,7.0716287757342995
1991-03-01,7.2,2018-12-12,2018-12-12,7.1899362399207325
1991-04-01,6.5,2018-12-12,2018-12-12,6.9402165644566765
1991-05-01,6.7,2018-12-12,2018-12-12,6.191696079858462
1991-06-01,7.0,2018-12-12,2018-12-12,7.150816013861128
1991-07-01,6.8,2018-12-12,2018-12-12,6.974742617619534
1991-08-01,6.6,2018-12-12,2018-12-12,6.9404144908924135
1991-09-01,6.5,2018-12-12,2018-12-12,6.195795794565829
1991-10-01,6.5,2018-12-12,2018-12-12,6.2588824637880265
1991-11-01,6.7,2018-12-12,2018-12-12,6.5890103452349855
1991-12-01,6.9,2018-12-12,2018-12-12,6.68582998688412
1992-01-01,8.1,2018-12-12,2018-12-12,7.324697598606039
1992-02-01,8.2,2018-12-12,2018-12-12,8.034333171023583
1992-03-01,7.8,2018-12-12,2018-12-12,8.05468785401835
1992-04-01,7.2,2018-12-12,2018-12-12,7.455809008415752
1992-05-01,7.3,2018-12-12,2018-12-12,6.936677207041934
1992-06-01,8.0,2018-12-12,2018-12-12,7.709237466586114
1992-07-01,7.7,2018-12-12,2018-12-12,8.00525698970137
1992-08-01,7.4,2018-12-12,2018-12-12,7.758386488623044
1992-09-01,7.3,2018-12-12,2018-12-12,6.935305683921861
1992-10-01,6.9,2018-12-12,2018-12-12,7.060862082327894
1992-11-01,7.1,2018-12-12,2018-12-12,6.946397126386046
1992-12-01,7.1,2018-12-12,2018-12-12,7.0914705789860495
1993-01-01,8.0,2018-12-12,2018-12-12,7.465359349996652
1993-02-01,7.8,2018-12-12,2018-12-12,7.847528629667422
1993-03-01,7.4,2018-12-12,2018-12-12,7.584061026171456
1993-04-01,6.9,2018-12-12,2018-12-12,7.1076179728414335
1993-05-01,6.8,2018-12-12,2018-12-12,6.685526708903479
1993-06-01,7.2,2018-12-12,2018-12-12,7.207706958328639
1993-07-01,7.0,2018-12-12,2018-12-12,7.148466658282851
1993-08-01,6.6,2018-12-12,2018-12-12,7.0723864156952825
1993-09-01,6.4,2018-12-12,2018-12-12,6.144621781058412
1993-10-01,6.4,2018-12-12,2018-12-12,6.170200341862441
1993-11-01,6.2,2018-12-12,2018-12-12,6.567513118729667
1993-12-01,6.1,2018-12-12,2018-12-12,6.146274828306512
1994-01-01,7.3,2018-12-12,2018-12-12,6.467157348833319
1994-02-01,7.1,2018-12-12,2018-12-12,7.2117904559670105
1994-03-01,6.8,2018-12-12,2018-12-12,6.90335749498278
1994-04-01,6.2,2018-12-12,2018-12-12,6.532765277394791
1994-05-01,5.9,2018-12-12,2018-12-12,6.006040180770236
1994-06-01,6.2,2018-12-12,2018-12-12,6.3169665014488325
1994-07-01,6.2,2018-12-12,2018-12-12,6.162795582374168
1994-08-01,5.9,2018-12-12,2018-12-12,6.341350804359813
1994-09-01,5.6,2018-12-12,2018-12-12,5.446312052244513
1994-10-01,5.4,2018-12-12,2018-12-12,5.369542202433973
1994-11-01,5.3,2018-12-12,2018-12-12,5.56233404115274
1994-12-01,5.1,2018-12-12,2018-12-12,5.327627843814012
1995-01-01,6.2,2018-12-12,2018-12-12,5.505686920069827
1995-02-01,5.9,2018-12-12,2018-12-12,6.108532545941996
1995-03-01,5.7,2018-12-12,2018-12-12,5.701939651928382
1995-04-01,5.6,2018-12-12,2018-12-12,5.463062468412185
1995-05-01,5.5,2018-12-12,2018-12-12,5.519560297274349
1995-06-01,5.8,2018-12-12,2018-12-12,5.981071402874033
1995-07-01,5.9,2018-12-12,2018-12-12,5.7750206611829675
1995-08-01,5.6,2018-12-12,2018-12-12,6.076476050234522
1995-09-01,5.4,2018-12-12,2018-12-12,5.152782248298227
1995-10-01,5.2,2018-12-12,2018-12-12,5.1858779089964795
1995-11-01,5.3,2018-12-12,2018-12-12,5.36586428961967
1995-12-01,5.2,2018-12-12,2018-12-12,5.363448266745951
1996-01-01,6.3,2018-12-12,2018-12-12,5.623166093885763
1996-02-01,6.0,2018-12-12,2018-12-12,6.210075719065708
1996-03-01,5.8,2018-12-12,2018-12-12,5.792812306063064
1996-04-01,5.4,2018-12-12,2018-12-12,5.569402940523953
1996-05-01,5.4,2018-12-12,2018-12-12,5.26575597048751
1996-06-01,5.5,2018-12-12,2018-12-12,5.911290601034911
1996-07-01,5.6,2018-12-12,2018-12-12,5.447884636846512
1996-08-01,5.1,2018-12-12,2018-12-12,5.785433279504577
1996-09-01,5.0,2018-12-12,2018-12-12,4.6226917613274585
1996-10-01,4.9,2018-12-12,2018-12-12,4.82648418336507
1996-11-01,5.0,2018-12-12,2018-12-12,5.0822556549212505
1996-12-01,5.0,2018-12-12,2018-12-12,5.082761583419389
1997-01-01,5.9,2018-12-12,2018-12-12,5.432028488688558
1997-02-01,5.7,2018-12-12,2018-12-12,5.794157502665074
1997-03-01,5.5,2018-12-12,2018-12-12,5.528344133346045
1997-04-01,4.8,2018-12-12,2018-12-12,5.273926632791966
1997-05-01,4.7,2018-12-12,2018-12-12,4.646315636696885
1997-06-01,5.2,2018-12-12,2018-12-12,5.189385490302008
1997-07-01,5.0,2018-12-12,2018-12-12,5.253256615638831
