value,realtime_start,realtime_end,value2,valuepredicted,value2predicted
4.8,2018-12-12,2018-12-12,1152,5.029835679348188,1472.57134507796
4.7,2018-12-12,2018-12-12,2532,5.060482617114354,1496.3919206490157
4.4,2018-12-12,2018-12-12,2781,5.089386336138237,1494.3437769705474
4.3,2018-12-12,2018-12-12,1103,5.116939328001185,1495.4310018456388
4.4,2018-12-12,2018-12-12,908,5.143168341798198,1496.093085629486
5.2,2018-12-12,2018-12-12,2506,5.16814145956143,1496.769277207693
5.0,2018-12-12,2018-12-12,2158,5.191918267861974,1497.4074499718688
5.0,2018-12-12,2018-12-12,120,5.214556141904535,1498.015744694495
4.1,2018-12-12,2018-12-12,2187,5.236109629574402,1498.5948163468224
4.2,2018-12-12,2018-12-12,697,5.256630675537323,1499.1461600970833
4.7,2018-12-12,2018-12-12,2439,5.276168735046452,1499.671092439279
4.7,2018-12-12,2018-12-12,1817,5.294770894526359,1500.1708799547455
4.5,2018-12-12,2018-12-12,1831,5.312481984878881,1500.6467269387276
4.4,2018-12-12,2018-12-12,2370,5.3293446895459535,1501.0997801974447
4.2,2018-12-12,2018-12-12,2408,5.345399647373434,1501.5311315791475
4.1,2018-12-12,2018-12-12,275,5.360685550550376,1501.9418206340413
4.0,2018-12-12,2018-12-12,1087,5.375239237856542,1502.3328371160726
4.8,2018-12-12,2018-12-12,1491,5.389095783443273,1502.7051233686527
4.7,2018-12-12,2018-12-12,2747,5.402288581361627,1503.059576595637
4.4,2018-12-12,2018-12-12,579,5.4148494260415,1503.3970510235774
4.1,2018-12-12,2018-12-12,777,5.426808588915693,1503.7183599603945
4.0,2018-12-12,2018-12-12,351,5.4381948913735725,1504.0242777554363
4.5,2018-12-12,2018-12-12,835,5.449035774220153,1504.315541665648
4.5,2018-12-12,2018-12-12,2863,5.459357363807996,1504.5928536323481
4.2,2018-12-12,2018-12-12,2355,5.469184535001298,1504.856881972898
4.1,2018-12-12,2018-12-12,871,5.478540971123909,1505.1082629913337
3.8,2018-12-12,2018-12-12,2515,5.487449221035763,1505.3476025118496
3.8,2018-12-12,2018-12-12,1582,5.495930753475264,1505.575477338824
3.7,2018-12-12,2018-12-12,1788,5.5040060087986,1505.7924366469094
4.5,2018-12-12,2018-12-12,957,5.511694448240672,1505.9990033045344
4.4,2018-12-12,2018-12-12,1352,5.5190146008163525,1506.1956751340072
4.3,2018-12-12,2018-12-12,115,5.525984107975117,1506.3829261112605
3.7,2018-12-12,2018-12-12,2758,5.532619766116649,1506.5612075081244
3.8,2018-12-12,2018-12-12,1129,5.538937567069893,1506.7309489798868
4.1,2018-12-12,2018-12-12,759,5.5449527366331015,1506.8925596007523
4.2,2018-12-12,2018-12-12,572,5.5506797712677685,1507.0464288497067
4.1,2018-12-12,2018-12-12,2921,5.556132473034861,1507.1929275491557
3.8,2018-12-12,2018-12-12,1042,5.5613239828575685,1507.3324087585977
3.6,2018-12-12,2018-12-12,2982,5.566266812190712,1507.4652086254955
3.7,2018-12-12,2018-12-12,1257,5.570972873173148,1507.591647195383
3.7,2018-12-12,2018-12-12,1010,5.575453507335835,1507.7120291831714
4.7,2018-12-12,2018-12-12,1782,5.579719512934734,1507.8266447075066
4.6,2018-12-12,2018-12-12,1166,5.583781170974436,1507.9357699899515
4.5,2018-12-12,2018-12-12,2949,5.5876482699852135,1508.039668020674
4.2,2018-12-12,2018-12-12,410,5.5913301296132225,1508.13858919225
4.1,2018-12-12,2018-12-12,1305,5.594835623080699,1508.232771903106
4.7,2018-12-12,2018-12-12,1599,5.5981731985702785,1508.3224431320525
4.7,2018-12-12,2018-12-12,2902,5.601350899584985,1508.407818985304
4.9,2018-12-12,2018-12-12,268,5.604376384332938,1508.4891052172875
4.7,2018-12-12,2018-12-12,231,5.607256944183513,1508.5664977265094
5.0,2018-12-12,2018-12-12,249,5.609999521239425,1508.6401830276666
5.3,2018-12-12,2018-12-12,718,5.612610725067081,1508.710338701145
5.4,2018-12-12,2018-12-12,2466,5.615096848625529,1508.7771338209845
6.3,2018-12-12,2018-12-12,1767,5.617463883432392,1508.840729362345
6.1,2018-12-12,2018-12-12,2249,5.619717534003322,1508.9012785894538
6.1,2018-12-12,2018-12-12,352,5.621863231599795,1508.9589274249709
5.7,2018-12-12,2018-12-12,1770,5.623906147318361,1509.0138148016579
5.5,2018-12-12,2018-12-12,2108,5.625851204552905,1509.066072997207
6.0,2018-12-12,2018-12-12,2922,5.6277030908599475,1509.1158279530243
5.9,2018-12-12,2018-12-12,1737,5.629466269255577,1509.1631995777511
5.7,2018-12-12,2018-12-12,838,5.631144988971248,1509.2083020362365
5.4,2018-12-12,2018-12-12,1040,5.632743295694363,1509.2512440246778
5.3,2018-12-12,2018-12-12,656,5.634265041318307,1509.2921290325735
5.6,2018-12-12,2018-12-12,1177,5.635713893225457,1509.3310555921319
5.7,2018-12-12,2018-12-12,1472,5.637093343125506,1509.368117515733
6.5,2018-12-12,2018-12-12,521,5.638406715470434,1509.4034041220143
6.4,2018-12-12,2018-12-12,1823,5.639657175466378,1509.4370004511266
6.2,2018-12-12,2018-12-12,1671,5.6408477367017325,1509.4689874696805
5.8,2018-12-12,2018-12-12,1707,5.641981268409844,1509.4994422658742
5.8,2018-12-12,2018-12-12,2815,5.643060502383821,1509.528438235275
6.5,2018-12-12,2018-12-12,141,5.644088039560109,1509.5560452577
6.3,2018-12-12,2018-12-12,452,5.645066356286707,1509.5823298656278
6.0,2018-12-12,2018-12-12,326,5.6459978102911235,1509.607355404539
5.8,2018-12-12,2018-12-12,782,5.646884646362467,1509.631182185578
5.6,2018-12-12,2018-12-12,2881,5.647729001761343,1509.6538676309024
5.6,2018-12-12,2018-12-12,526,5.648532911370626,1509.675466412069
5.4,2018-12-12,2018-12-12,2867,5.649298312599491,1509.6960305817918
6.3,2018-12-12,2018-12-12,1392,5.650027050052535,1509.7156096993872
6.0,2018-12-12,2018-12-12,192,5.6507208799752515,1509.7342509502125
6.0,2018-12-12,2018-12-12,1277,5.651381474486547,1509.7519992593814
5.4,2018-12-12,2018-12-12,822,5.652010425608522,1509.7688974000318
5.3,2018-12-12,2018-12-12,82,5.652609249103224,1509.7849860964104
5.8,2018-12-12,2018-12-12,2534,5.653179388125603,1509.8003041220152
5.7,2018-12-12,2018-12-12,956,5.653722216701494,1509.8148883930405
5.4,2018-12-12,2018-12-12,1578,5.654239043038998,1509.828774057344
5.1,2018-12-12,2018-12-12,1744,5.654731112681239,1509.8419945791525
5.1,2018-12-12,2018-12-12,1369,5.655199611508109,1509.8545818197097
5.2,2018-12-12,2018-12-12,407,5.655645668594212,1509.8665661140624
5.1,2018-12-12,2018-12-12,2390,5.656070358929921,1509.8779763441662
5.7,2018-12-12,2018-12-12,191,5.656474706012088,1509.8888400084913
5.8,2018-12-12,2018-12-12,1481,5.656859684310647,1509.8991832882937
5.4,2018-12-12,2018-12-12,2662,5.6572262216170826,1509.90903111071
4.9,2018-12-12,2018-12-12,1759,5.65757520128038,1509.9184072088337
4.9,2018-12-12,2018-12-12,2090,5.657907464335894,1509.9273341789096
5.2,2018-12-12,2018-12-12,962,5.65822381153222,1509.9358335347915
5.2,2018-12-12,2018-12-12,2981,5.658525005260992,1509.9439257597896
4.9,2018-12-12,2018-12-12,834,5.658811771394231,1509.9516303560358
4.8,2018-12-12,2018-12-12,213,5.659084801033687,1509.958965891482
4.6,2018-12-12,2018-12-12,2196,5.6593447521763816,1509.965950044651
4.8,2018-12-12,2018-12-12,2887,5.659592251300369,1509.9725996472382
4.6,2018-12-12,2018-12-12,2024,5.659827894874541,1509.9789307246792
5.1,2018-12-12,2018-12-12,988,5.660052250796105,1509.9849585347679
5.1,2018-12-12,2018-12-12,2861,5.6602658597592095,1509.9906976044297
4.8,2018-12-12,2018-12-12,2213,5.660469236558004,1509.9961617647293
4.5,2018-12-12,2018-12-12,1378,5.66066287132729,1510.001364184205
4.4,2018-12-12,2018-12-12,1233,5.660847230723733,1510.0063174006036
4.8,2018-12-12,2018-12-12,294,5.661022759050501,1510.0110333510968
5.0,2018-12-12,2018-12-12,2346,5.661189879328026,1510.0155234010492
4.6,2018-12-12,2018-12-12,1673,5.661348994313478,1510.0197983714083
4.4,2018-12-12,2018-12-12,341,5.661500487471402,1510.0238685647837
4.1,2018-12-12,2018-12-12,494,5.6616447238978616,1510.027743790276
4.3,2018-12-12,2018-12-12,2575,5.661782051200315,1510.031433387116
4.3,2018-12-12,2018-12-12,2460,5.661912800335343,1510.034946247172
5.0,2018-12-12,2018-12-12,148,5.662037286406249,1510.0382908363806
4.9,2018-12-12,2018-12-12,189,5.662155809422453,1510.0414752151473
4.5,2018-12-12,2018-12-12,248,5.66226865502251,1510.0445070577737
4.3,2018-12-12,2018-12-12,805,5.662376095162494,1510.0473936709516
4.3,2018-12-12,2018-12-12,1225,5.662478388771406,1510.0501420113721
4.7,2018-12-12,2018-12-12,1979,5.6625757823751925,1510.0527587024915
4.9,2018-12-12,2018-12-12,1071,5.662668510690866,1510.0552500504923
4.6,2018-12-12,2018-12-12,285,5.662756797192166,1510.057622059484
4.5,2018-12-12,2018-12-12,1723,5.662840854648139,1510.0598804459692
4.4,2018-12-12,2018-12-12,973,5.662920885635894,1510.0620306526232
4.5,2018-12-12,2018-12-12,2987,5.662997083028819,1510.0640778614093
4.8,2018-12-12,2018-12-12,2802,5.6630696304614005,1510.066027006067
5.4,2018-12-12,2018-12-12,1180,5.663138702771779,1510.0678827840047
5.2,2018-12-12,2018-12-12,2572,5.663204466423108,1510.0696496676162
5.2,2018-12-12,2018-12-12,2782,5.663267079904722,1510.0713319150625
4.8,2018-12-12,2018-12-12,1809,5.663326694114104,1510.0729335805333
5.2,2018-12-12,2018-12-12,1963,5.663383452720534,1510.0744585240166
5.7,2018-12-12,2018-12-12,662,5.663437492511337,1510.0759104206008
6.0,2018-12-12,2018-12-12,2977,5.663488943721536,1510.077292769334
6.1,2018-12-12,2018-12-12,2550,5.663537930347716,1510.0786089016535
6.0,2018-12-12,2018-12-12,1226,5.663584570446856,1510.0798619894179
6.1,2018-12-12,2018-12-12,2498,5.66362897642084,1510.0810550525478
6.5,2018-12-12,2018-12-12,2070,5.66367125528735,1510.0821909663061
7.1,2018-12-12,2018-12-12,2994,5.66371150893777,1510.0832724682268
8.5,2018-12-12,2018-12-12,939,5.663749834382749,1510.0843021647122
8.9,2018-12-12,2018-12-12,158,5.663786323985987,1510.0852825373138
9.0,2018-12-12,2018-12-12,2793,5.663821065686842,1510.0862159487142
8.6,2018-12-12,2018-12-12,1840,5.663854143212251,1510.0871046484197
9.1,2018-12-12,2018-12-12,2395,5.663885636278515,1510.0879507781817
9.7,2018-12-12,2018-12-12,2947,5.663915620783415,1510.0887563771598
9.7,2018-12-12,2018-12-12,1675,5.663944168989125,1510.0895233868346
9.6,2018-12-12,2018-12-12,371,5.663971349696358,1510.0902536556864
9.5,2018-12-12,2018-12-12,424,5.663997228410181,1510.090948943652
9.5,2018-12-12,2018-12-12,2260,5.664021867497875,1510.091610926364
9.4,2018-12-12,2018-12-12,2767,5.664045326339243,1510.0922411991896
9.7,2018-12-12,2018-12-12,399,5.664067661469716,1510.092841281077
10.6,2018-12-12,2018-12-12,2690,5.6640889267165955,1510.0934126182128
10.4,2018-12-12,2018-12-12,2273,5.664109173328784,1510.093956587511
10.2,2018-12-12,2018-12-12,630,5.664128450100289,1510.0944744999288
9.5,2018-12-12,2018-12-12,927,5.664146803487821,1510.0949676036266
9.3,2018-12-12,2018-12-12,7,5.664164277722745,1510.095437086976
9.6,2018-12-12,2018-12-12,2813,5.664180914917685,1510.0958840814249
9.7,2018-12-12,2018-12-12,2641,5.664196755168013,1510.0963096642224
9.5,2018-12-12,2018-12-12,1833,5.664211836648477,1510.0967148610162
9.2,2018-12-12,2018-12-12,2006,5.6642261957052,1510.0971006483242
9.0,2018-12-12,2018-12-12,1526,5.6642398669432765,1510.0974679558872
9.3,2018-12-12,2018-12-12,1068,5.664252883310171,1510.0978176689107
9.1,2018-12-12,2018-12-12,2193,5.664265276175117,1510.0981506301976
9.8,2018-12-12,2018-12-12,919,5.664277075404718,1510.098467642179
9.5,2018-12-12,2018-12-12,2304,5.6642883094349274,1510.0987694688486
9.2,2018-12-12,2018-12-12,932,5.6642990053395765,1510.0990568376042
8.7,2018-12-12,2018-12-12,675,5.664309188895623,1510.0993304409992
8.7,2018-12-12,2018-12-12,839,5.664318884645272,1510.099590938414
9.3,2018-12-12,2018-12-12,1011,5.664328115955124,1510.099838957643
9.3,2018-12-12,2018-12-12,1060,5.664336905072487,1510.100075096408
9.1,2018-12-12,2018-12-12,492,5.66434527317899,1510.1002999238005
8.8,2018-12-12,2018-12-12,2531,5.664353240441637,1510.1005139816505
8.5,2018-12-12,2018-12-12,20,5.6643608260614,1510.1007177858337
8.2,2018-12-12,2018-12-12,181,5.664368048319502,1510.100911827515
8.3,2018-12-12,2018-12-12,364,5.664374924621467,1510.101096574332
8.8,2018-12-12,2018-12-12,1119,5.664381471539072,1510.1012724715213
8.7,2018-12-12,2018-12-12,2311,5.6643877048502835,1510.101439942992
8.4,2018-12-12,2018-12-12,1015,5.6643936395772805,1510.1015993923484
7.7,2018-12-12,2018-12-12,2190,5.664399290022658,1510.1017512038602
7.9,2018-12-12,2018-12-12,2142,5.6644046698039,1510.1018957433912
8.4,2018-12-12,2018-12-12,1765,5.66440979188619,1510.1020333592787
8.6,2018-12-12,2018-12-12,1665,5.6644146686136665,1510.1021643831752
8.2,2018-12-12,2018-12-12,2211,5.664419311739162,1510.1022891308464
7.6,2018-12-12,2018-12-12,2865,5.664423732452534,1510.1024079029319
7.5,2018-12-12,2018-12-12,1054,5.664427941407632,1510.1025209856703
7.4,2018-12-12,2018-12-12,1469,5.664431948747968,1510.1026286515894
7.6,2018-12-12,2018-12-12,1102,5.664435764131168,1510.1027311601624
8.5,2018-12-12,2018-12-12,2064,5.664439396752244,1510.1028287584331
8.1,2018-12-12,2018-12-12,952,5.664442855365754,1510.1029216816119
7.6,2018-12-12,2018-12-12,2955,5.664446148306902,1510.1030101536421
7.1,2018-12-12,2018-12-12,2715,5.664449283511621,1510.10309438774
7.3,2018-12-12,2018-12-12,56,5.664452268535704,1510.103174586908
7.8,2018-12-12,2018-12-12,2749,5.664455110573011,1510.1032509444253
7.7,2018-12-12,2018-12-12,941,5.664457816472808,1510.103323644312
7.3,2018-12-12,2018-12-12,2569,5.664460392756267,1510.1033928617737
7.0,2018-12-12,2018-12-12,1088,5.66446284563219,1510.1034587636236
7.0,2018-12-12,2018-12-12,1762,5.66446518101197,1510.1035215086838
6.6,2018-12-12,2018-12-12,1283,5.664467404523833,1510.103581248169
6.5,2018-12-12,2018-12-12,1981,5.664469521526408,1510.1036381260503
7.0,2018-12-12,2018-12-12,2650,5.664471537121636,1510.1036922794024
7.0,2018-12-12,2018-12-12,1414,5.6644734561670695,1510.1037438387343
6.8,2018-12-12,2018-12-12,2864,5.664475283287577,1510.1037929283032
5.9,2018-12-12,2018-12-12,780,5.664477022886488,1510.1038396664137
6.1,2018-12-12,2018-12-12,2560,5.664478679156209,1510.1038841657041
6.3,2018-12-12,2018-12-12,981,5.664480256088324,1510.1039265334173
6.5,2018-12-12,2018-12-12,2144,5.6644817574832125,1510.1039668716583
6.3,2018-12-12,2018-12-12,1879,5.664483186959213,1510.104005277642
5.7,2018-12-12,2018-12-12,2417,5.664484547961339,1510.1040418439259
5.5,2018-12-12,2018-12-12,2832,5.664485843769584,1510.1040766586345
5.5,2018-12-12,2018-12-12,2039,5.664487077506824,1510.1041098056703
5.4,2018-12-12,2018-12-12,773,5.664488252146347,1510.1041413649175
6.1,2018-12-12,2018-12-12,736,5.664489370519014,1510.104171412433
5.8,2018-12-12,2018-12-12,2396,5.6644904353200864,1510.1042000206312
5.6,2018-12-12,2018-12-12,667,5.664491449115717,1510.104227258457
5.1,2018-12-12,2018-12-12,621,5.664492414349136,1510.1042531915534
5.3,2018-12-12,2018-12-12,2165,5.664493333346542,1510.1042778824187
5.5,2018-12-12,2018-12-12,515,5.6644942083227035,1510.1043013905576
5.6,2018-12-12,2018-12-12,1561,5.6644950413862984,1510.1043237726237
5.2,2018-12-12,2018-12-12,2098,5.664495834544996,1510.1043450825584
4.9,2018-12-12,2018-12-12,2401,5.664496589710298,1510.1043653717177
4.8,2018-12-12,2018-12-12,2360,5.664497308702138,1510.1043846889984
4.8,2018-12-12,2018-12-12,2057,5.664497993253277,1510.1044030809542
4.8,2018-12-12,2018-12-12,2292,5.66449864501347,1510.1044205919104
5.3,2018-12-12,2018-12-12,804,5.6644992655534505,1510.1044372640674
5.2,2018-12-12,2018-12-12,1416,5.664499856368709,1510.1044531376049
5.1,2018-12-12,2018-12-12,1964,5.6645004188831,1510.1044682507782
4.7,2018-12-12,2018-12-12,2194,5.664500954452275,1510.1044826400098
4.5,2018-12-12,2018-12-12,2026,5.664501464366948,1510.1044963399772
5.1,2018-12-12,2018-12-12,2058,5.664501949856004,1510.1045093836972
5.1,2018-12-12,2018-12-12,503,5.664502412089464,1510.104521802605
5.0,2018-12-12,2018-12-12,1450,5.664502852181301,1510.10453362663
4.8,2018-12-12,2018-12-12,2499,5.664503271192133,1510.1045448842679
4.7,2018-12-12,2018-12-12,1019,5.664503670131767,1510.1045556026495
4.4,2018-12-12,2018-12-12,1159,5.664504049961641,1510.1045658076055
4.5,2018-12-12,2018-12-12,2859,5.66450441159714,1510.1045755237303
5.1,2018-12-12,2018-12-12,217,5.6645047559098,1510.104584774439
4.9,2018-12-12,2018-12-12,2150,5.664505083729407,1510.1045935820264
4.6,2018-12-12,2018-12-12,170,5.664505395846002,1510.1046019677178
4.1,2018-12-12,2018-12-12,2469,5.664505693011782,1510.1046099517232
4.1,2018-12-12,2018-12-12,1628,5.664505975942911,1510.1046175532838
4.5,2018-12-12,2018-12-12,2012,5.664506245321247,1510.1046247907188
4.6,2018-12-12,2018-12-12,1473,5.66450650179599,1510.104631681471
4.5,2018-12-12,2018-12-12,2172,5.664506745985238,1510.1046382421468
4.1,2018-12-12,2018-12-12,1738,5.664506978477485,1510.1046444885567
3.9,2018-12-12,2018-12-12,1617,5.6645071998330305,1510.1046504357553
3.9,2018-12-12,2018-12-12,402,5.664507410585341,1510.1046560980747
3.9,2018-12-12,2018-12-12,1219,5.664507611242325,1510.1046614891613
4.5,2018-12-12,2018-12-12,1441,5.664507802287561,1510.1046666220072
4.4,2018-12-12,2018-12-12,1465,5.664507984181467,1510.1046715089828
4.1,2018-12-12,2018-12-12,1345,5.664508157362404,1510.1046761618657
3.7,2018-12-12,2018-12-12,2668,5.664508322247734,1510.1046805918688
3.6,2018-12-12,2018-12-12,288,5.664508479234829,1510.104684809669
4.2,2018-12-12,2018-12-12,1563,5.664508628702026,1510.1046888254305
4.1,2018-12-12,2018-12-12,297,5.6645087710095385,1510.1046926488314
3.9,2018-12-12,2018-12-12,461,5.664508906500324,1510.1046962890862
3.6,2018-12-12,2018-12-12,229,5.664509035500914,1510.104699754968
3.5,2018-12-12,2018-12-12,2659,5.664509158322197,1510.1047030548289
3.5,2018-12-12,2018-12-12,2604,5.664509275260171,1510.1047061966221
